57.000000
58.000000
86.000000
95.000000
116.000000
132.000000
141.000000
220.000000
259.000000
317.000000
318.000000
367.000000
374.000000
379.000000
380.000000
399.000000
400.000000
401.000000
402.000000
479.000000
480.000000
482.000000
503.000000
505.000000
537.000000
544.000000
545.000000
546.000000
547.000000
552.000000
553.000000
556.000000
557.000000
558.000000
559.000000
560.000000
561.000000
562.000000
563.000000
566.000000
567.000000
568.000000
569.000000
572.000000
582.000000
584.000000
586.000000
587.000000
589.000000
590.000000
591.000000
593.000000
594.000000
595.000000
596.000000
597.000000
598.000000
599.000000
600.000000
601.000000
602.000000
603.000000
605.000000
606.000000
607.000000
608.000000
614.000000
615.000000
616.000000
641.000000
654.000000
655.000000
656.000000
657.000000
658.000000
659.000000
660.000000
661.000000
662.000000
666.000000
677.000000
683.000000
790.000000
791.000000
793.000000
794.000000
795.000000
796.000000
797.000000
