114.000000
115.000000
116.000000
117.000000
118.000000
119.000000
224.000000
225.000000
226.000000
230.000000
231.000000
232.000000
278.000000
308.000000
309.000000
310.000000
365.000000
366.000000
368.000000
369.000000
391.000000
392.000000
493.000000
494.000000
495.000000
496.000000
500.000000
501.000000
