,id,age,gender,education,hand,headinj,treatment,chronic,drug,hair,played,playfreq,play_fps,play_horror,play_sport,play_rts,play_simulation,play_rpg,knowslender,base_calmness,base_disgust,base_happiness,base_sadness,base_anger,base_fear,base_excitement,base_surprise,day_calmness,day_disgust,day_happiness,day_sadness,day_anger,day_fear,day_excitement,day_surprise,night_calmness,night_disgust,night_happiness,night_sadness,night_anger,night_fear,night_excitement,night_surprise
0,175.0,26.0,M,high,R,N,N,N,N,short,1.0,weekly,1.0,0.0,0.0,1.0,1.0,1.0,,heard,1.0,8.0,2.0,1.0,1.0,8.0,3.0,7.0,1.0,5.0,1.0,1.0,3.0,5.0,2.0,2.0,1.0,4.0,1.0,1.0,9.0,9.0,9.0
1,181.0,21.0,M,secondary,R,N,N,N,N,short,1.0,monthly,1.0,0.0,1.0,1.0,0.0,1.0,,video,1.0,7.0,2.0,1.0,1.0,5.0,1.0,9.0,1.0,7.0,2.0,1.0,2.0,3.0,3.0,1.0,4.0,1.0,5.0,2.0,9.0,10.0,3.0
2,190.0,18.0,M,secondary,R,N,N,N,N,short,1.0,weekly,1.0,1.0,1.0,1.0,1.0,1.0,,video,1.0,6.0,2.0,1.0,2.0,6.0,4.0,8.0,1.0,6.0,1.0,1.0,1.0,8.0,6.0,2.0,3.0,3.0,3.0,4.0,9.0,7.0,8.0
3,207.0,21.0,M,secondary,R,N,N,N,N,short,1.0,raremonthly,1.0,0.0,1.0,1.0,1.0,1.0,,heard,2.0,3.0,2.0,4.0,2.0,3.0,1.0,3.0,2.0,2.0,2.0,2.0,2.0,4.0,3.0,1.0,5.0,2.0,2.0,4.0,6.0,4.0,5.0
4,213.0,20.0,F,secondary,R,N,N,N,N,necklen,1.0,daily,1.0,0.0,0.0,1.0,0.0,1.0,,video,1.0,6.0,2.0,1.0,2.0,10.0,6.0,8.0,1.0,3.0,2.0,1.0,2.0,6.0,2.0,4.0,2.0,6.0,2.0,2.0,3.0,9.0,5.0
5,219.0,20.0,M,secondary,R,N,N,N,N,short,1.0,raremonthly,1.0,0.0,0.0,1.0,1.0,1.0,,video,1.0,5.0,2.0,1.0,2.0,1.0,1.0,8.0,1.0,4.0,2.0,1.0,1.0,1.0,1.0,6.0,2.0,1.0,2.0,3.0,3.0,3.0,2.0
6,302.0,29.0,M,high,R,N,N,N,N,short,1.0,raremonthly,1.0,0.0,0.0,1.0,0.0,0.0,,none,1.0,5.0,1.0,1.0,1.0,6.0,3.0,7.0,1.0,4.0,1.0,1.0,1.0,6.0,2.0,4.0,1.0,2.0,2.0,6.0,4.0,7.0,4.0
7,226.0,23.0,F,secondary,R,N,N,N,N,long,1.0,monthly,1.0,1.0,1.0,1.0,1.0,1.0,,played,1.0,5.0,2.0,1.0,1.0,6.0,2.0,5.0,2.0,3.0,2.0,1.0,2.0,3.0,1.0,3.0,2.0,2.0,2.0,1.0,3.0,6.0,1.0
8,235.0,23.0,M,high,R,N,N,N,N,short,1.0,monthly,1.0,0.0,0.0,1.0,1.0,1.0,,heard,2.0,7.0,4.0,2.0,2.0,8.0,3.0,3.0,1.0,4.0,2.0,1.0,7.0,8.0,4.0,2.0,1.0,2.0,1.0,1.0,8.0,9.0,5.0
9,252.0,26.0,M,secondary,R,N,N,N,N,shoulderlen,1.0,weekly,1.0,0.0,0.0,1.0,0.0,1.0,,heard,1.0,7.0,1.0,2.0,1.0,4.0,3.0,10.0,1.0,7.0,1.0,2.0,1.0,4.0,3.0,8.0,1.0,4.0,1.0,6.0,5.0,8.0,6.0
10,253.0,21.0,F,secondary,R,N,N,N,N,long,1.0,weekly,1.0,0.0,0.0,1.0,1.0,1.0,,heard,1.0,8.0,1.0,1.0,1.0,6.0,2.0,10.0,1.0,8.0,1.0,1.0,1.0,6.0,2.0,6.0,1.0,1.0,1.0,3.0,8.0,9.0,4.0
11,269.0,19.0,F,secondary,L,N,N,N,N,long,1.0,raremonthly,0.0,0.0,0.0,1.0,0.0,0.0,,none,1.0,8.0,1.0,1.0,1.0,7.0,9.0,8.0,1.0,7.0,1.0,1.0,1.0,3.0,3.0,1.0,1.0,1.0,1.0,1.0,10.0,9.0,10.0
12,274.0,22.0,F,secondary,R,N,N,N,N,long,0.0,never,0.0,0.0,0.0,0.0,0.0,0.0,,none,1.0,6.0,1.0,1.0,1.0,7.0,1.0,7.0,1.0,3.0,1.0,1.0,1.0,3.0,1.0,4.0,1.0,1.0,1.0,1.0,6.0,5.0,10.0
13,276.0,21.0,M,secondary,R,N,N,N,N,short,1.0,raremonthly,1.0,1.0,1.0,1.0,1.0,1.0,,heard,1.0,4.0,4.0,2.0,2.0,5.0,2.0,5.0,1.0,1.0,1.0,1.0,1.0,1.0,1.0,1.0,1.0,1.0,1.0,2.0,7.0,6.0,2.0
14,281.0,25.0,M,high,R,N,N,N,N,short,1.0,raremonthly,1.0,0.0,1.0,1.0,1.0,0.0,,heard,1.0,6.0,2.0,1.0,2.0,8.0,3.0,9.0,1.0,3.0,7.0,1.0,2.0,7.0,2.0,2.0,3.0,1.0,8.0,4.0,9.0,9.0,8.0
15,303.0,20.0,F,secondary,R,N,N,N,N,long,1.0,raremonthly,0.0,0.0,1.0,1.0,0.0,0.0,,heard,1.0,5.0,1.0,1.0,1.0,7.0,5.0,5.0,1.0,3.0,1.0,1.0,1.0,6.0,5.0,3.0,2.0,2.0,3.0,4.0,7.0,7.0,4.0
16,304.0,20.0,F,secondary,R,N,N,N,N,long,1.0,annually,0.0,0.0,0.0,1.0,1.0,0.0,,none,1.0,8.0,1.0,1.0,1.0,5.0,4.0,8.0,1.0,3.0,2.0,1.0,3.0,3.0,1.0,3.0,1.0,1.0,1.0,8.0,6.0,5.0,2.0
17,308.0,22.0,M,secondary,R,N,N,N,N,short,1.0,monthly,0.0,0.0,0.0,1.0,0.0,0.0,,video,3.0,6.0,3.0,3.0,4.0,6.0,5.0,4.0,5.0,5.0,5.0,3.0,5.0,6.0,6.0,6.0,3.0,4.0,3.0,5.0,6.0,6.0,5.0
18,310.0,22.0,M,secondary,R,N,N,N,N,short,1.0,weekly,1.0,0.0,0.0,1.0,0.0,1.0,,heard,1.0,7.0,1.0,1.0,3.0,9.0,7.0,8.0,1.0,8.0,1.0,1.0,3.0,9.0,8.0,4.0,1.0,5.0,1.0,4.0,6.0,8.0,8.0
19,314.0,32.0,M,high,R,N,N,N,N,short,1.0,raremonthly,1.0,0.0,1.0,0.0,1.0,0.0,,none,4.0,7.0,6.0,4.0,5.0,5.0,5.0,6.0,3.0,8.0,4.0,3.0,4.0,5.0,5.0,5.0,3.0,5.0,5.0,4.0,6.0,6.0,6.0
20,315.0,25.0,M,high,R,N,N,N,N,short,1.0,monthly,1.0,0.0,0.0,1.0,0.0,1.0,,video,1.0,4.0,1.0,1.0,1.0,7.0,7.0,3.0,1.0,5.0,1.0,1.0,2.0,6.0,6.0,4.0,1.0,3.0,1.0,1.0,9.0,9.0,7.0
21,316.0,30.0,M,high,R,N,N,N,N,short,1.0,raredaily,0.0,0.0,0.0,1.0,0.0,1.0,,video,1.0,7.0,1.0,1.0,1.0,8.0,6.0,3.0,1.0,4.0,1.0,1.0,5.0,8.0,4.0,2.0,1.0,3.0,1.0,1.0,9.0,9.0,4.0
22,317.0,33.0,M,secondary,R,N,N,N,N,short,1.0,raremonthly,1.0,0.0,0.0,1.0,0.0,0.0,,none,1.0,3.0,1.0,1.0,2.0,4.0,1.0,5.0,1.0,1.0,1.0,1.0,1.0,4.0,1.0,2.0,1.0,1.0,1.0,1.0,5.0,5.0,4.0
23,318.0,39.0,M,secondary,R,N,N,N,N,short,1.0,weekly,1.0,0.0,0.0,0.0,0.0,0.0,,none,5.0,5.0,5.0,5.0,5.0,8.0,5.0,8.0,2.0,2.0,4.0,4.0,2.0,5.0,5.0,4.0,2.0,5.0,4.0,5.0,6.0,6.0,6.0
24,320.0,22.0,M,secondary,R,N,N,N,N,short,1.0,raredaily,0.0,0.0,1.0,0.0,0.0,0.0,,none,2.0,10.0,2.0,1.0,2.0,3.0,3.0,8.0,1.0,8.0,2.0,1.0,3.0,3.0,1.0,2.0,2.0,3.0,2.0,2.0,6.0,3.0,5.0
