"id","submitdate","lastpage","startlanguage","KOD","ERZ[E0]","ERZ[E1]","ERZ[E2]","ERZ[E3]","ERZ[E4]","ERZ[E5]","ERZ[E6]","ERZ[E7]"
"1","1980-01-01 00:00:00","1","hu","3","4","2","6","2","2","3","9","5"
"2","1980-01-01 00:00:00","1","hu","4","2","3","3","3","4","9","7","8"
"3","1980-01-01 00:00:00","1","hu","5","2","1","2","1","1","8","9","5"
"4","1980-01-01 00:00:00","1","hu","1","6","1","1","1","3","8","9","4"
"5","1980-01-01 00:00:00","1","hu","2","8","1","4","1","6","5","8","6"
"6","1980-01-01 00:00:00","1","hu","6","4","1","5","1","4","6","8","8"
"7","1980-01-01 00:00:00","1","hu","8","2","2","3","2","2","6","3","5"
"8","1980-01-01 00:00:00","1","hu","7","1","5","2","2","4","6","4","5"
"9","1980-01-01 00:00:00","1","hu","9","3","1","1","1","8","6","5","2"
"10","1980-01-01 00:00:00","1","hu","10","1","1","1","1","1","10","9","10"
"11","1980-01-01 00:00:00","1","hu","11","4","1","2","2","6","4","7","4"
"12","1980-01-01 00:00:00","1","hu","12","1","1","1","1","2","7","6","2"
"13","1980-01-01 00:00:00","1","hu","13","2","3","1","8","4","9","9","8"
"14","1980-01-01 00:00:00","1","hu","14","4","1","1","1","1","6","5","10"
"15","1980-01-01 00:00:00","1","hu","15","3","2","2","2","1","3","6","1"
"16","1980-01-01 00:00:00","1","hu","16","6","2","1","2","3","3","3","2"
"17","1980-01-01 00:00:00","1","hu","17","2","1","4","1","1","9","9","9"
"19","1980-01-01 00:00:00","1","hu","19","1","4","1","5","2","9","10","3"
"20","1980-01-01 00:00:00","1","hu","20","5","3","5","5","4","6","6","6"
"21","1980-01-01 00:00:00","1","hu","21","6","3","4","3","5","6","6","5"
"22","1980-01-01 00:00:00","1","hu","22","4","1","3","1","1","9","9","7"
"23","1980-01-01 00:00:00","1","hu","23","2","1","3","1","1","9","9","4"
"24","1980-01-01 00:00:00","1","hu","24","2","1","1","1","1","5","5","4"
"25","1980-01-01 00:00:00","1","hu","25","4","2","5","4","5","6","6","6"
"26","1980-01-01 00:00:00","","hu","18","3","2","2","3","4","7","7","4"
"34","1980-01-01 00:00:00","1","hu","347","1","5","1","4","5","9","9","9"
"35","1980-01-01 00:00:00","1","hu","332","1","2","1","2","9","10","10","10"
"36","1980-01-01 00:00:00","1","hu","381","5","1","3","3","3","6","6","6"
"39","1980-01-01 00:00:00","1","hu","415","2","4","6","1","4","4","10","8"
"47","1980-01-01 00:00:00","1","hu","331","3","1","2","4","2","3","3","3"
"49","1980-01-01 00:00:00","1","hu","384","1","2","7","2","5","8","9","8"
"50","1980-01-01 00:00:00","1","hu","364","7","1","4","1","1","3","3","5"
"52","1980-01-01 00:00:00","1","hu","353","1","3","1","1","9","10","9","6"
"53","1980-01-01 00:00:00","1","hu","422","1","2","4","1","1","7","6","5"
"56","1980-01-01 00:00:00","1","hu","417","1","3","1","2","5","6","3","5"
"57","1980-01-01 00:00:00","1","hu","487","2","1","1","4","4","9","7","8"
"61","1980-01-01 00:00:00","1","hu","391","1","1","1","1","1","7","7","5"
"63","1980-01-01 00:00:00","1","hu","390","1","3","1","4","5","9","10","8"
"64","1980-01-01 00:00:00","1","hu","472","2","1","4","4","4","5","9","8"
"66","1980-01-01 00:00:00","1","hu","0","1","1","1","1","1","1","1","1"
"69","1980-01-01 00:00:00","1","hu","421","5","2","4","2","1","5","6","5"
"70","1980-01-01 00:00:00","1","hu","444","1","2","2","4","3","6","8","7"
"71","1980-01-01 00:00:00","1","hu","488","2","1","1","1","2","8","6","3"
"72","1980-01-01 00:00:00","1","hu","450","2","1","1","1","1","6","7","2"
"74","1980-01-01 00:00:00","1","hu","482","2","1","5","1","1","8","8","1"
"75","1980-01-01 00:00:00","1","hu","490","1","1","1","1","2","6","7","5"
"80","1980-01-01 00:00:00","1","hu","498","4","2","4","1","3","6","5","4"
"81","1980-01-01 00:00:00","1","hu","493","2","1","1","1","2","10","9","4"
"84","1980-01-01 00:00:00","1","hu","470","2","1","5","1","1","5","6","3"
"85","1980-01-01 00:00:00","1","hu","443","1","1","3","1","1","10","10","10"

