Name	P013	Version	PsyGSR 0.2.1f
Time	GSR	Pulse	Marker	Battery	IBT
172394	48.661				
172644	48.649				
172894	48.697				
173144	48.697				766	
173394	48.673	69			
173644	48.637				
173894	48.637				762	
174144	48.721				
174394	44.372				
174644	35.638				750	
174894	14.444				
175144	8.052				
175394	18.256				746	
175644	29.008				
175894	24.36			2.3779296875	703	
176144	35.137				
176394	46.522				
176644	13.357				668	
176894	6.536				
177144	6.755				
177394	7.065				797	
177644	7.261				
177894	7.09				
178144	6.705				808	
178394	6.923	80			
178644	6.534				
178894	6.385				
179144	6.29				766	
179394	6.148				
179644	6.032				
179894	5.995				832	
180144	5.988				
180394	5.93				
180644	5.93				891	
180894	5.894			2.3583984375	
181144	5.915				
181394	5.93				
181644	5.915				882	
181894	5.89				
182144	5.923				
182394	6.239				868	
182644	6.635				
182894	6.461				
183144	6.145				
183394	6.905	75			941	
183644	6.635				
183894	6.708				
184144	6.33				
184394	5.974				906	
184644	5.766				
184894	5.483				
185144	5.425				844	
185394	5.406				
185644	5.399				
185894	5.399			2.3388671875	
186144	5.396				871	
186394	5.41				
186644	5.461				
186894	5.548				895	
187144	5.621				
187394	5.65				
187644	5.683				
187894	5.679				902	
188144	5.672				
188394	5.632	67			
188644	5.614				855	
188894	5.588				
189144	5.534				
189394	5.508				
189644	5.483				860	
189894	5.476				
190144	5.454				
190394	5.439				820	
190644	5.425				
190894	5.414			2.24609375	
191144	5.41				856	
191394	5.436				
191644	5.559				
191894	5.792				750	
192144	6.148				
192394	6.417				
192644	6.574				
192894	6.65				812	
193144	6.661				
193394	6.592	70			
193644	6.534				867	
193894	6.428				
194144	6.334				
194394	6.199				
194644	6.123				871	
194894	6.043				
195144	5.966				
195394	5.894				739	
195644	5.846				
195894	5.806			2.3876953125	
196144	5.766				855	
196394	5.748				
196644	5.77				
196894	5.817				
197144	5.854				918	
197394	5.872				
197644	5.875				
197894	5.85				949	
198144	5.825				
198394	5.777	71			
198644	5.726				
198894	12.955				883	
199144	21.69				
199394	16.188				
199644	5.555				
199894	4.931				973	
200144	6.679				
200394	6.112				
200644	5.741				
200894	5.679			2.3388671875	1004	
201144	5.683				
201394	5.65				
201644	5.632				
201894	5.606				941	
202144	5.585				
202394	5.534				
202644	5.512				867	
202894	5.494				
203144	5.479				
203394	5.461	66			
203644	5.559				965	
203894	5.774				
204144	6.072				
204394	6.283				
204644	6.41				984	
204894	6.41				
205144	6.326				
205394	6.355				
205644	6.301				957	
205894	6.192			2.373046875	
206144	6.097				
206394	6.025				879	
206644	5.934				
206894	5.868				
207144	5.825				
207394	5.796				930	
207644	6.668				
207894	14.82				
208144	23.255				
208394	48.673	63			934	
208644	48.697				
208894	48.733				
209144	48.697				851	
209394	48.721				
209644	48.697				
209894	48.625				
210144	48.661				848	
210394	48.625				
210644	48.625				
210894	48.733			2.3388671875	926	
211144	48.625				
211394	48.673				
211644	48.625				
211894	48.685				882	
212144	48.637				
212394	48.673				
212644	48.637				832	
212894	48.673				
213144	48.709				
213394	48.685	66			
213644	48.661				918	
213894	48.685				
214144	48.745				
214394	26.415				
214644	6.391				954	
214894	5.416				
215144	5.723				
215394	5.981				855	
215644	5.934				
215894	5.883			2.2509765625	
216144	5.879				
216394	5.934				953	
216644	6.054				
216894	6.119				
217144	6.174				
217394	6.155				942	
217644	6.17				
217894	9.999				
218144	6.766				902	
218394	6.079	66			
218644	6.006				
218894	5.937				820	
219144	5.883				
219394	5.843				
219644	5.825				
219894	5.832				883	
220144	5.861				
220394	5.875				
220644	5.875				
220894	5.861			2.265625	891	
221144	5.843				
221394	5.817				
221644	5.766				824	
221894	5.716				
222144	5.686				
222394	5.654				891	
222644	5.636				
222894	5.599				
223144	5.592				
223394	5.559	67			941	
223644	5.541				
223894	5.519				
224144	5.563				797	
224394	5.599				
224644	5.632				
224894	5.654				
225144	5.672				859	
225394	5.665				
225644	5.657				
225894	5.646			2.3828125	903	
226144	5.636				
226394	5.625				
226644	5.643				
226894	5.65				824	
227144	5.646				
227394	5.643				
227644	5.632				797	
227894	5.657				
228144	5.723				
228394	5.788	69			890	
228644	5.835				
228894	5.843				
229144	5.839				
229394	5.821				883	
229644	5.77				
229894	5.73				
230144	5.679				773	
230394	5.632				
230644	5.621				
230894	5.726			2.3095703125	809	
231144	6.112				
231394	6.603				
231644	7.006				
231894	7.217				844	
232144	7.304				
232394	7.272				
232644	7.235				824	
232894	7.101				
233144	6.985				
233394	6.814	71			699	
233644	6.675				
233894	6.585				
234144	6.563				789	
234394	6.606				
234644	6.668				
234894	6.745				868	
235144	7.137				
235394	6.668				
235644	6.599				
235894	6.563			2.28515625	886	
236144	6.515				
236394	6.439				
236644	6.366				735	
236894	6.312				
237144	6.21				
237394	6.17				820	
237644	6.17				
237894	6.126				
238144	6.086				
238394	6.075	74			879	
238644	7.712				
238894	13.522				
239144	23.289				914	
239394	48.745				
239644	48.697				
239894	48.661				781	
240144	48.709				
240394	48.709				
240644	48.649				746	
240894	48.613			2.333984375	
241144	48.661				
241394	48.601				
241644	48.721				848	
241894	48.661				
242144	48.721				
242394	48.697				906	
242644	48.733				
242894	48.709				
243144	48.649				
243394	48.697	71			926	
243644	48.709				
243894	48.673				
244144	48.709				738	
244394	48.697				
244644	48.709				
244894	48.733				715	
245144	48.697				
245394	48.541				
245644	48.649				
245894	48.649			2.3046875	906	
246144	48.709				
246394	48.673				
246644	48.685				891	
246894	48.685				
247144	48.721				
247394	48.625				
247644	48.697				906	
247894	48.601				
248144	48.709				
248394	48.613	71			758	
248644	48.685				
248894	48.685				
249144	48.756				742	
249394	48.697				
249644	48.661				
249894	48.613				797	
250144	48.685				
250394	48.649				
250644	48.685				
250894	48.733			2.3388671875	941	
251144	48.673				
251394	48.649				
251644	48.625				915	
251894	48.733				
252144	48.697				
252394	48.721				
252644	48.637				789	
252894	48.709				
253144	48.709				
253394	48.721	71			746	
253644	48.219				
253894	48.649				
254144	48.709				859	
254394	48.625				
254644	48.661				
254894	48.685				859	
255144	22.198				
255394	6.26				
255644	5.359				
255894	5.468			2.3388671875	864	
256144	5.839				
256394	5.796				
256644	5.737				765	
256894	5.697				
257144	5.668				
257394	5.643				762	
257644	5.628				
257894	5.643				
258144	7.981				
258394	6.075	72			914	
258644	5.908				
258894	5.883				
259144	5.868				871	
259394	5.825				
259644	5.774				
259894	5.734				715	
260144	5.694				
260394	5.646				
260644	5.868				844	
260894	14.769			2.3779296875	
261144	23.289				
261394	48.613				
261644	48.709				883	
261894	48.589				
262144	48.685				
262394	48.685				894	
262644	48.661				
262894	48.673				
263144	48.697				
263394	35.925	71			840	
263644	42.484				
263894	48.661				
264144	48.673				883	
264394	48.661				
264644	48.494				
264894	48.589				
265144	48.649				906	
265394	48.565				
265644	48.637				
265894	33.81			2.2705078125	
266144	14.742				895	
266394	5.376				
266644	4.731				
266894	4.85				816	
267144	5.192				
267394	5.181				
267644	5.159				766	
267894	5.156				
268144	5.145				
268394	5.145	71			855	
268644	5.156				
268894	5.17				
269144	5.188				
269394	5.257				875	
269644	5.443				
269894	5.737				
270144	6.083				899	
270394	6.352				
270644	6.501				
270894	6.552			2.255859375	
271144	6.57				871	
271394	6.537				
271644	6.472				
271894	6.366				867	
272144	6.301				
272394	6.217				
272644	6.13				
272894	6.072				906	
273144	5.995				
273394	5.941	69			
273644	5.89				
273894	5.846				930	
274144	5.817				
274394	5.763				
274644	5.73				914	
274894	5.701				
275144	5.679				
275394	5.65				
275644	5.639				906	
275894	5.632			2.3486328125	
276144	6.345				
276394	14.813				
276644	21.358				891	
276894	10.274				
277144	5.411				
277394	5.417				820	
277644	5.708				
277894	5.603				
278144	5.603				883	
278394	5.603	67			
278644	5.599				
278894	5.585				
279144	5.577				906	
279394	5.541				
279644	5.53				
279894	5.512				
280144	5.486				895	
280394	5.457				
280644	5.439				
280894	5.417			2.3388671875	808	
281144	5.41				
281394	5.388				
281644	5.385				891	
281894	5.37				
282144	5.363				
282394	5.352				
282644	5.326				941	
282894	5.308				
283144	5.305				
283394	5.283	67			
283644	5.294				930	
283894	5.276				
284144	5.261				
284394	5.261				785	
284644	5.239				
284894	5.225				
285144	5.221				
285394	5.199				973	
285644	5.185				
285894	5.166			2.2705078125	
286144	5.166				
286394	5.148				980	
286644	5.145				
286894	5.134				
287144	5.13				
287394	5.123				965	
287644	5.119				
287894	5.072				
288144	5.061				832	
288394	5.057	66			
288644	5.054				
288894	5.025				
289144	5.025				906	
289394	5.014				
289644	5.01				
289894	5.006				961	
290144	4.992				
290394	4.992				
290644	4.959				
290894	4.934			2.3583984375	883	
291144	4.937				
291394	4.916				
291644	4.908				844	
291894	4.897				
292144	4.897				
292394	4.89				
292644	4.872				941	
292894	4.861				
293144	4.854				
293394	4.839	66			
293644	4.828				988	
293894	4.817				
294144	4.792				
294394	4.792				
294644	4.781				918	
294894	4.766				
295144	4.77				
295394	4.759				
295644	4.748				965	
295894	4.766			2.3193359375	
296144	4.817				
296394	4.799				
296644	4.785				985	
296894	4.777				
297144	4.781				
297394	4.77				
297644	4.759				1015	
297894	4.759				
298144	4.817				
298394	8.068	63			
298644	13.42				1000	
298894	23.295				
299144	48.661				
299394	48.756				836	
299644	48.637				
299894	48.685				
300144	48.697				
300394	48.697				926	
300644	48.756				
300894	48.649			2.3583984375	
301144	48.697				949	
301394	48.709				
301644	48.745				
301894	48.709				
302144	48.673				930	
302394	48.673				
302644	48.709				
302894	48.685				
303144	48.709				836	
303394	48.709	64			
303644	48.733				
303894	48.649				867	
304144	48.649				
304394	48.601				
304644	48.637				
304894	48.673				965	
305144	48.756				
305394	48.756				
305644	48.649				
305894	48.613			2.3046875	941	
306144	48.625				
306394	48.709				
306644	48.709				832	
306894	48.625				
307144	48.673				
307394	48.673				
307644	48.721				903	
307894	48.589				
308144	48.697				
308394	48.565	66			929	
308644	48.649				
308894	48.709				
309144	48.637				
309394	48.637				930	
309644	48.613				
309894	48.768				
310144	48.661				797	
310394	48.601				
310644	48.673				
310894	48.697			2.3388671875	
311144	48.649				836	
311394	48.661				
311644	48.673				
311894	48.673				867	
312144	48.721				
312394	48.721				
312644	48.649				
312894	48.733				930	
313144	48.685				
313394	48.637	67			
313644	48.649				785	
313894	48.709				
314144	48.661				
314394	48.637				785	
314644	48.733				
314894	48.721				
315144	48.637				867	
315394	48.709				
315644	48.697				
315894	48.685			2.34375	
316144	48.721				918	
316394	48.673				
316644	48.685				
316894	48.613				836	
317144	48.577				
317394	48.721				
317644	48.685				
317894	35.746				856	
318144	18.398				
318394	29.378	70			
318644	45.268				
318894	48.016				945	
319144	48.685				
319394	48.541				
319644	48.649				922	
319894	48.565				
320144	48.637				
320394	48.482				
320644	48.697				824	
320894	48.673			2.2607421875	
321144	48.649				
321394	48.721				832	
321644	48.673				
321894	48.685				
322144	48.685				
322394	48.661				977	
322644	48.661				
322894	48.745				
323144	48.697				
323394	48.685	68			925	
323644	48.78				
323894	48.697				
324144	48.601				825	
324394	48.637				
324644	48.685				
324894	48.721				
325144	48.685				906	
325394	48.613				
325644	48.601				
325894	48.661			2.3193359375	926	
326144	48.637				
326394	48.768				
326644	48.613				
326894	48.685				836	
327144	48.637				
327394	48.649				
327644	48.697				808	
327894	48.709				
328144	48.661				
328394	48.661	68			879	
328644	48.589				
328894	48.768				
329144	48.697				
329394	48.661				906	
329644	48.745				
329894	48.697				
330144	48.673				832	
330394	48.733				
330644	48.673				
330894	48.673			2.3486328125	
331144	48.721				860	
331394	48.709				
331644	48.637				
331894	48.733				941	
332144	48.756				
332394	48.625				
332644	48.685				
332894	48.613				879	
333144	48.625				
333394	48.661	68			
333644	48.685				
333894	48.721				883	
334144	48.649				
334394	48.601				
334644	43.5				890	
334894	6.654				
335144	3.336				
335394	3.363				
335644	3.472				950	
335894	3.597			2.3486328125	
336144	3.591				
336394	3.581				883	
336644	3.571				
336894	3.555				
337144	3.542				
337394	3.532				824	
337644	3.532				
337894	3.527				
338144	3.521				937	
338394	3.511	67			
338644	3.511				
338894	3.506				
339144	3.498				953	
339394	3.495				
339644	3.49				
339894	3.482				
340144	3.48				825	
340394	3.469				
340644	3.462				
340894	3.462			2.32421875	836	
341144	3.456				
341394	3.475				
341644	3.493				886	
341894	3.503				
342144	3.516				
342394	3.527				
342644	3.545				895	
342894	3.534				
343144	3.532				
343394	3.524	67			797	
343644	3.524				
343894	3.524				
344144	3.568				
344394	8.905				824	
344644	14.799				
344894	23.312				
345144	48.721				875	
345394	48.745				
345644	48.709				
345894	48.589			2.373046875	
346144	48.721				875	
346394	48.601				
346644	48.589				734	
346894	48.697				
347144	48.768				
347394	48.721				
347644	48.709				824	
347894	48.506				
348144	48.709				
348394	48.733	71			891	
348644	48.625				
348894	48.649				
349144	48.494				
349394	48.446				859	
349644	47.681				
349894	46.439				
350144	35.101				774	
350394	8.841				
350644	4.828				
350894	6.221			2.265625	832	
351144	14.028				
351394	18.535				
351644	18.088				781	
351894	36.797				
352144	48.661				
352394	40.943				
352644	35.435				805	
352894	45.196				
353144	41.337				
353394	39.043	72			793	
353644	6.152				
353894	8.468				
354144	19.313				801	
354394	46.558				
354644	36.116				
354894	48.661				773	
355144	43.607				
355394	42.412				
355644	48.721				781	
355894	48.673			2.3583984375	
356144	48.697				
356394	48.637				719	
356644	48.697				
356894	48.673				
357144	48.709				762	
357394	48.661				
357644	48.685				
357894	48.709				726	
358144	48.613				
358394	48.589	77			
358644	48.697				715	
358894	48.697				
359144	48.709				
359394	48.709				703	
359644	48.661				
359894	48.697				
360144	48.673				762	
360394	39.868				
360644	20.37				
360894	40.632			2.265625	836	
361144	8.088				
361394	5.079				
361644	11.268				
361894	10.079				871	
362144	7.485				
362394	22.055				
362644	11.612				824	
362894	16.238				
363144	48.649				
363394	48.661	77			899	
363644	48.625				
363894	48.685				
364144	48.745				
364394	48.613				953	
364644	42.317				
364894	38.482				
365144	47.263				
365394	48.541				879	
365644	48.685				
365894	48.613			2.3388671875	
366144	35.686				890	
366394	15.34				
366644	18.924				
366894	19.725				
367144	27.598				907	
367394	48.625				
367644	48.601				
367894	48.721				859	
368144	48.685				
368394	48.697	69			
368644	48.685				
368894	48.565				867	
369144	48.685				
369394	48.721				
369644	48.661				856	
369894	48.661				
370144	48.589				
370394	45.805				
370644	48.219				847	
370894	48.613			2.3388671875	
371144	48.709				
371394	48.649				895	
371644	48.35				
371894	48.661				
372144	48.649				781	
372394	25.889				
372644	9.856				
372894	22.541				
373144	10.549				820	
373394	6.045	69			
373644	8.101				
373894	7.101				852	
374144	6.955				
374394	6.73				
374644	6.628				816	
374894	7.246				
375144	11.442				
375394	7.799				
375644	10.919				860	
375894	14.684			2.3388671875	
376144	7.559				
376394	15.244				906	
376644	22.21				
376894	11.433				
377144	6.456				
377394	7.141				789	
377644	6.988				
377894	7.086				
378144	8.923				852	
378394	10.239	71			
378644	23.272				
378894	47.586				871	
379144	27.18				
379394	12.245				
379644	7.239				
379894	12.947				812	
380144	14.284				
380394	9.987				
380644	7.776				856	
380894	6.468			2.24609375	
381144	6.192				
381394	6.726				
381644	6.828				879	
381894	10.755				
382144	9.582				
382394	9.039				812	
382644	10.622				
382894	6.919				
383144	6.651				781	
383394	9.617	71			
383644	14.824				
383894	23.232				813	
384144	48.589				
384394	40.967				
384644	19.533				
384894	6.774				840	
385144	6.085				
385394	6.741				730	
385644	7.275				
385894	6.628			2.3583984375	
386144	10.435				
386394	12.902				805	
386644	23.198				
386894	48.649				
387144	48.697				812	
387394	48.721				
387644	48.613				
387894	48.673				762	
388144	48.553				
388394	48.637	74			
388644	48.721				797	
388894	48.709				
389144	48.649				
389394	48.625				
389644	13.142				828	
389894	9.227				
390144	23.295				
390394	48.506				824	
390644	48.649				
390894	48.697			2.3046875	
391144	48.637				782	
391394	48.661				
391644	48.685				
391894	48.721				847	
392144	42.544				
392394	28.398				
392644	6.869				
392894	5.828				871	
393144	8.988				
393394	7.206	74			
393644	6.559				793	
393894	6.559				
394144	6.712				
394394	9.337				766	
394644	7.006				
394894	8.868				
395144	6.77				863	
395394	6.679				
395644	6.606				
395894	6.563			2.265625	
396144	10.537				813	
396394	23.187				
396644	48.685				
396894	48.745				750	
397144	48.637				
397394	48.697				
397644	48.721				832	
397894	42.126				
398144	8.745				
398394	20.798	73			847	
398644	48.41				
398894	13.703				
399144	6.822				
399394	7.166				778	
399644	6.643				
399894	13.319				
400144	8.759				785	
400394	15.021				
400644	23.261				
400894	48.721			2.32421875	832	
401144	48.673				
401394	48.625				
401644	48.673				863	
401894	48.685				
402144	48.577				
402394	48.673				
402644	48.625				801	
402894	48.04				
403144	40.083				
403394	39.007	73			836	
403644	29.689				
403894	35.913				
404144	19.438				859	
404394	6.774				
404644	7.908				
404894	10.285				
405144	7.182				781	
405394	9.81				
405644	6.685				
405894	6.468			2.3388671875	825	
406144	7.137				
406394	8.563				
406644	10.955				851	
406894	23.295				
407144	48.673				
407394	48.745				778	
407644	48.685				
407894	48.649				
408144	48.685				
408394	48.649	73			800	
408644	48.637				
408894	48.649				
409144	48.649				840	
409394	48.661				
409644	36.439				
409894	22.018				813	
410144	41.325				
410394	48.673				
410644	48.649				746	
410894	48.709			2.3486328125	
411144	48.673				
411394	48.697				
411644	48.697				836	
411894	48.661				
412144	48.673				
412394	48.649				840	
412644	48.756				
412894	48.661				
413144	48.768				754	
413394	48.697	74			
413644	48.685				
413894	48.685				824	
414144	48.637				
414394	48.661				
414644	48.673				
414894	48.697				863	
415144	48.733				
415394	48.721				
415644	48.625				824	
415894	48.721			2.3583984375	
416144	48.709				
416394	48.673				758	
416644	48.721				
416894	48.697				
417144	48.661				848	
417394	48.649				
417644	48.709				
417894	48.649				
418144	48.649				883	
418394	48.721	73			
418644	48.709				
418894	48.649				847	
419144	48.673				
419394	48.709				
419644	48.613				
419894	48.733				871	
420144	48.613				
420394	48.709				
420644	48.709				910	
420894	48.673			2.3046875	
421144	48.721				
421394	48.733				
421644	48.661				860	
421894	48.709				
422144	48.768				
422394	48.697				836	
422644	48.697				
422894	48.709				
423144	48.685				
423394	48.697	70			859	
423644	48.637				
423894	48.625				
424144	48.685				875	
424394	48.697				
424644	48.649				
424894	48.625				813	
425144	48.661				
425394	48.721				
425644	48.685				
425894	48.721			2.3681640625	781	
426144	48.673				
426394	48.661				
426644	48.685				836	
426894	48.613				
427144	48.697				
427394	48.649				746	
427644	48.721				
427894	48.721				
428144	48.577				777	
428394	48.78	72			
428644	48.733				
428894	48.745				860	
429144	48.637				
429394	48.625				
429644	48.697				
429894	48.697				863	
430144	48.685				
430394	48.685				
430644	48.685				812	
430894	48.649			2.265625	
431144	48.673				
431394	48.637				
431644	48.661				895	
431894	48.697				
432144	48.709				
432394	48.733				894	
432644	48.673				
432894	48.745				
433144	48.685				
433394	48.78	72			860	
433644	48.625				
433894	48.697				
434144	48.745				910	
434394	48.709				
434644	48.661				
434894	48.78				
435144	48.721				941	
435394	48.673				
435644	48.649				
435894	48.709			2.3388671875	825	
436144	48.733				
436394	48.649				
436644	48.661				
436894	48.685				886	
437144	48.709				
437394	48.721				
437644	48.697				
437894	48.685				895	
438144	48.565				
438394	48.685	68			
438644	48.625				855	
438894	48.661				
439144	48.697				
439394	48.697				852	
439644	48.649				
439894	48.661				
440144	48.721				
440394	48.721				910	
440644	48.673				
440894	48.685			2.36328125	
441144	48.637				
441394	48.649				906	
441644	48.733				
441894	48.697				
442144	48.613				852	
442394	48.745				
442644	48.625				
442894	48.649				
443144	48.697				902	
443394	48.601	67			
443644	48.768				
443894	48.709				895	
444144	48.685				
444394	48.709				
444644	48.697				816	
444894	48.637				
445144	48.685				
445394	48.697				
445644	48.637				860	
445894	48.661			2.3046875	
446144	48.697				
446394	48.697				871	
446644	48.673				
446894	48.541				
447144	48.661				
447394	48.709				781	
447644	48.637				
447894	48.661				
448144	48.685				812	
448394	48.721	69			
448644	48.577				
448894	48.709				746	
449144	48.613				
449394	48.637				
449644	48.673				719	
449894	48.637				
450144	48.661				
450394	48.649				781	
450644	48.697				
450894	48.733			2.3486328125	
451144	48.673				918	
451394	48.613				
451644	48.649				
451894	48.649				
452144	48.649				872	
452394	48.721				
452644	48.697				
452894	48.733				847	
453144	48.78				
453394	48.613	73			
453644	48.685				
453894	48.649				899	
454144	48.673				
454394	48.673				
454644	48.673				836	
454894	48.709				
455144	48.673				
455394	48.697				
455644	48.733				847	
455894	48.709			2.3388671875	
456144	48.709				
456394	48.721				918	
456644	48.649				
456894	48.733				
457144	48.661				
457394	48.697				852	
457644	48.685				
457894	48.697				
458144	48.697				859	
458394	48.709	69			
458644	48.625				
458894	48.768				
459144	48.709				930	
459394	48.613				
459644	48.649				
459894	48.685				894	
460144	48.697				
460394	48.733				
460644	48.709				
460894	48.733			2.2705078125	864	
461144	48.697				
461394	48.577				
461644	48.685				
461894	48.721				941	
462144	48.721				
462394	48.637				
462644	48.601				930	
462894	48.649				
463144	48.673				
463394	48.792	67			
463644	48.673				855	
463894	48.685				
464144	48.601				
464394	48.721				
464644	48.661				930	
464894	48.745				
465144	48.685				
465394	48.697				922	
465644	48.709				
465894	48.673			2.3583984375	
466144	48.721				804	
466394	48.565				
466644	48.673				
466894	48.601				
467144	48.661				907	
467394	48.709				
467644	48.673				
467894	48.721				824	
468144	48.685				
468394	48.673	67			
468644	48.709				
468894	48.673				851	
469144	48.649				
469394	48.768				
469644	48.625				918	
469894	48.613				
470144	48.673				
470394	48.733				
470644	48.709				848	
470894	48.721			2.28515625	
471144	48.697				
471394	48.637				
471644	48.721				918	
471894	48.649				
472144	48.721				
472394	48.709				953	
472644	48.649				
472894	48.613				
473144	48.637				
473394	48.673	67			895	
473644	48.709				
473894	48.685				
474144	48.733				
474394	48.697				957	
474644	48.756				
474894	48.613				
475144	48.649				
475394	48.721				953	
475644	48.613				
475894	48.673			2.24609375	
476144	48.637				894	
476394	48.661				
476644	48.685				
476894	48.685				
477144	48.685				954	
477394	48.649				
477644	48.673				
477894	48.649				
478144	48.673				906	
478394	48.637	65			
478644	48.685				
478894	48.661				918	
479144	48.661				
479394	48.745				
479644	48.709				
479894	48.721				945	
480144	48.78				
480394	48.721				
480644	48.709				
480894	48.649			2.3583984375	906	
481144	48.601				
481394	48.733				
481644	48.601				895	
481894	48.768				
482144	48.685				
482394	48.685				
482644	48.697				930	
482894	48.601				
483144	48.673				
483394	48.649	64			
483644	48.661				937	
483894	48.673				
484144	48.685				
484394	48.529				887	
484644	48.589				
484894	48.697				
485144	48.733				781	
485394	48.721				
485644	48.697				
485894	48.661			2.265625	
486144	48.673				824	
486394	48.661				
486644	48.709				
486894	48.697				910	
487144	48.649				
487394	48.685				
487644	48.709				
487894	48.709				907	
488144	48.745				
488394	48.673	67			
488644	48.673				879	
488894	48.721				
489144	48.685				
489394	48.685				
489644	48.685				933	
489894	48.697				
490144	48.661				
490394	48.661				
490644	48.613				942	
490894	48.673			2.32421875	
491144	48.709				
491394	48.637				882	
491644	48.685				
491894	48.661				
492144	48.721				
492394	48.649				942	
492644	48.625				
492894	48.613				
493144	48.625				
493394	48.697	67			883	
493644	48.649				
493894	48.685				
494144	48.709				875	
494394	48.661				
494644	48.661				
494894	48.649				
495144	48.589				918	
495394	48.721				
495644	48.637				
495894	48.685			2.3046875	859	
496144	48.756				
496394	48.589				
496644	48.673				
496894	48.709				851	
497144	48.697				
497394	48.601				
497644	48.709				895	
497894	48.625				
498144	48.733				
498394	48.745	66			
498644	48.637				820	
498894	48.721				
499144	48.709				
499394	48.733				832	
499644	48.709				
499894	48.697				
500144	48.721				
500394	48.697				907	
500644	48.709				
500894	48.697			2.36328125	
501144	48.398				894	
501394	48.625				
501644	48.709				
501894	48.721				
502144	48.697				871	
502394	48.697				
502644	48.685				
502894	48.721				953	
503144	48.637				
503394	48.649	68			
503644	48.685				
503894	48.756				891	
504144	48.553				
504394	48.673				
504644	48.637				
504894	48.661				891	
505144	48.709				
505394	48.601				
505644	48.709				961	
505894	48.649			2.3388671875	
506144	48.673				
506394	48.673				
506644	48.601				929	
506894	48.649				
507144	48.697				
507394	48.685				
507644	48.637				871	
507894	48.637				
508144	48.685				
508394	48.697	66			938	
508644	48.649				
508894	48.733				
509144	48.709				
509394	48.661				965	
509644	48.673				
509894	48.661				
510144	36.355				808	
510394	35.949				
510644	48.673				
510894	48.733			2.3486328125	
511144	48.685				906	
511394	40.131				
511644	48.506				
511894	48.721				
512144	48.709				918	
512394	48.625				
512644	48.721				
512894	48.601				821	
513144	48.613				
513394	48.601	66			
513644	48.637				
513894	48.673				953	
514144	48.649				
514394	47.944				
514644	12.138				
514894	22.724				933	
515144	48.565				
515394	48.685				
515644	48.709				864	
515894	48.745			2.3388671875	
516144	48.267				
516394	48.577				
516644	48.709				918	
516894	48.673				
517144	48.745				
517394	40.979				929	
517644	34.671				
517894	33.046				
518144	24.79				
518394	7.526	66			887	
518644	14.816				
518894	7.159				
519144	5.599				
519394	5.85				895	
519644	7.119				
519894	9.464				
520144	14.751				883	
520394	23.284				
520644	48.685				
520894	48.733			2.28515625	734	
521144	48.673				
521394	48.721				
521644	48.721				754	
521894	48.709				
522144	48.649				
522394	48.649				812	
522644	48.685				
522894	48.625				
523144	48.673				
523394	48.697	69			910	
523644	48.613				
523894	48.733				
524144	48.661				
524394	48.709				946	
524644	48.661				
524894	48.685				
525144	48.697				
525394	48.685				945	
525644	35.662				
525894	48.745			2.3388671875	
526144	48.673				863	
526394	48.697				
526644	48.637				
526894	48.028				
527144	48.697				918	
527394	48.697				
527644	48.673				
527894	48.685				942	
528144	48.709				
528394	48.733	68			
528644	48.709				
528894	48.649				843	
529144	48.673				
529394	48.649				
529644	48.565				903	
529894	44.694				
530144	23.177				
530394	20.143				
530644	48.673				883	
530894	47.968			2.3583984375	
531144	46.224				
531394	48.685				714	
531644	48.709				
531894	48.673				
532144	48.685				762	
532394	48.589				
532644	48.673				
532894	48.721				860	
533144	48.637				
533394	48.745	69			
533644	48.649				
533894	48.601				937	
534144	48.721				
534394	48.637				
534644	47.072				
534894	39.653				895	
535144	20.812				
535394	6.989				
535644	6.085				933	
535894	6.421			2.32421875	
536144	6.872				
536394	6.905				
536644	6.897				969	
536894	6.872				
537144	6.865				
537394	6.814				
537644	6.788				965	
537894	6.755				
538144	6.73				
538394	6.675	68			
538644	6.672				918	
538894	6.741				
539144	6.854				
539394	7.017				
539644	7.108				976	
539894	7.155				
540144	7.163				
540394	7.145				953	
540644	7.108				
540894	7.039			2.3046875	
541144	6.995				
541394	6.93				891	
541644	6.865				
541894	6.828				
542144	6.792				
542394	6.774				930	
542644	6.748				
542894	6.715				
543144	7.094				902	
543394	6.828	64			
543644	6.657				
543894	6.628				
544144	6.617				848	
544394	6.606				
544644	6.603				
544894	6.661				883	
545144	6.701				
545394	6.741				
545644	6.755				
545894	6.737			2.236328125	914	
546144	6.726				
546394	6.694				
546644	6.65				879	
546894	6.625				
547144	6.577				
547394	6.566				
547644	6.552				929	
547894	6.523				
548144	6.505				
548394	6.468	65			
548644	7.145				953	
548894	6.421				
549144	7.257				
549394	8.21				883	
549644	6.61				
549894	6.955				
550144	6.923				
550394	6.403				879	
550644	6.334				
550894	6.315			2.34375	
551144	6.305				
551394	6.301				941	
551644	6.301				
551894	6.286				
552144	6.283				879	
552394	6.265				
552644	6.235				
552894	6.232				
553144	6.275				860	
553394	6.29	66			
553644	6.297				
553894	6.297				918	
554144	6.312				
554394	6.308				
554644	6.312				
554894	6.33				843	
555144	6.283				
555394	6.221				
555644	6.195				809	
555894	6.155			2.3388671875	
556144	6.319				
556394	6.148				871	
556644	6.152				
556894	6.148				
557144	6.152				
557394	6.152				942	
557644	6.155				
557894	6.141				
558144	8.719				757	
558394	7.748	68			
558644	6.119				
558894	6.083				
559144	6.068				813	
559394	6.057				
559644	6.017				
559894	5.995				930	
560144	5.999				
560394	11.842				
560644	6.548				
560894	5.537			2.3681640625	910	
561144	6.272				
561394	6.319				
561644	5.915				871	
561894	5.89				
562144	5.872				
562394	7.919				
562644	6.875				930	
562894	5.923				
563144	5.843				
563394	5.839	69			
563644	5.832				937	
563894	5.828				
564144	5.81				
564394	5.766				898	
564644	6.61				
564894	5.905				
565144	6.955				
565394	5.97				903	
565644	9.293				
565894	5.796			2.3046875	
566144	5.745				
566394	5.752				906	
566644	5.763				
566894	6.006				
567144	6.145				883	
567394	5.766				
567644	5.745				
567894	5.723				
568144	5.712				824	
568394	5.705	66			
568644	5.676				
568894	5.654				887	
569144	5.65				
569394	5.646				
569644	5.646				
569894	5.636				871	
570144	5.632				
570394	5.621				
570644	5.606				812	
570894	5.596			2.3583984375	
571144	5.588				
571394	5.574				871	
571644	5.526				
571894	5.508				
572144	5.505				
572394	5.501				887	
572644	5.476				
572894	5.457				
573144	5.45				848	
573394	5.428	69			
573644	5.399				
573894	5.406				812	
574144	5.392				
574394	5.399				
574644	5.497				
574894	6.257				813	
575144	5.574				
575394	7.821				
575644	5.941				793	
575894	6.421			2.3583984375	
576144	6.574				
576394	6.872				746	
576644	7.239				
576894	7.537				
577144	7.744				871	
577394	7.89				
577644	7.952				
577894	7.941				
578144	7.926				883	
578394	7.879	71			
578644	7.832				
578894	7.792				793	
579144	8.879				
579394	8.603				
579644	7.81				847	
579894	7.719				
580144	7.661				
580394	7.588				
580644	7.534				895	
580894	7.483			2.3046875	
581144	7.428				
581394	7.388				
581644	7.315				906	
581894	7.275				
582144	7.265				
582394	7.257				840	
582644	7.334				
582894	7.574				
583144	8.039				824	
583394	8.286	71			
583644	9.89				
583894	8.766				742	
584144	8.752				
584394	9.206				
584644	9.417				665	
584894	9.457				
585144	9.646				
585394	9.744				722	
585644	9.766				
585894	9.679			2.36328125	
586144	9.566				789	
586394	9.428				
586644	9.275				
586894	9.09				
587144	8.923				895	
587394	8.792				
587644	8.672				
587894	8.563				929	
588144	8.472				
588394	8.417	73			
588644	8.374				793	
588894	8.301				
589144	8.235				
589394	8.479				
589644	9.548				813	
589894	9.45				
590144	8.283				
590394	8.13				894	
590644	8.235				
590894	8.406			2.275390625	
591144	11.068				
591394	10.45				856	
591644	9.13				
591894	9.233				
592144	9.296				820	
592394	9.313				
592644	9.199				
592894	12.776				824	
593144	9.319				
593394	8.742	71			
593644	8.536				
593894	8.439				852	
594144	8.359				
594394	8.233				
594644	8.159				836	
594894	8.125				
595144	8.125				
595394	8.125				859	
595644	8.108				
595894	8.096			2.3583984375	
596144	8.068				
596394	8.022				875	
596644	7.97				
596894	7.89				
597144	7.805				883	
597394	7.708				
597644	7.65				
597894	7.753				
598144	7.508				871	
598394	11.764	70			
598644	7.925				
598894	7.376				
599144	7.336				907	
599394	7.325				
599644	7.256				
599894	7.216				863	
600144	7.165				
600394	7.148				
600644	7.148				859	
600894	7.13			2.3583984375	
601144	7.108				
601394	7.096				
601644	9.405				883	
601894	8.228				
602144	7.056				
602394	7.022				859	
602644	7.005				
602894	7.01				
603144	7.039				
603394	7.153	69			836	
603644	7.296				
603894	7.416				
604144	8.936				875	
604394	8.782				
604644	7.576				
604894	7.53				
605144	7.485				871	
605394	7.428				
605644	7.37				
605894	7.33			2.34375	871	
606144	7.268				
606394	10.999				
606644	7.433				
606894	7.405				817	
607144	7.182				
607394	7.153				
607644	7.153				883	
607894	7.136				
608144	7.119				
608394	7.096	69			840	
608644	7.062				
608894	7.033				
609144	7.016				
609394	7.022				882	
609644	7.05				
609894	7.153				
610144	7.279				883	
610394	7.348				
610644	7.382				
610894	7.376			2.3046875	
611144	7.37				860	
611394	11.045				
611644	15.21				
611894	8.21				847	
612144	7.336				
612394	7.29				
612644	7.25				
612894	7.216				887	
613144	7.176				
613394	7.119	69			
613644	7.062				871	
613894	7.039				
614144	7.01				
614394	6.999				
614644	6.97				813	
614894	6.976				
615144	7.01				
615394	7.045				851	
615644	7.125				
615894	7.159			2.3388671875	
616144	7.376				871	
616394	10.987				
616644	7.25				
616894	7.176				
617144	7.148				801	
617394	10.427				
617644	7.33				
617894	7.536				746	
618144	7.89				
618394	8.193	71			
618644	8.45				813	
618894	8.599				
619144	13.827				
619394	16.016				882	
619644	32.819				
619894	11.242				
620144	7.439				
620394	8.028				903	
620644	7.902				
620894	7.805			2.36328125	
621144	7.753				840	
621394	7.782				
621644	7.879				
621894	12.564				
622144	8.279				906	
622394	10.17				
622644	8.89				
622894	8.119				
623144	12.142				918	
623394	7.942	70			
623644	7.765				
623894	7.696				844	
624144	7.633				
624394	7.542				
624644	7.536				
624894	11.382				929	
625144	16.039				
625394	11.481				
625644	6.679				899	
625894	6.963			2.3388671875	
626144	7.515				
626394	7.497				
626644	7.475				839	
626894	7.454				
627144	7.454				
627394	7.446				833	
627644	7.457				
627894	7.464				
628144	7.464				
628394	7.464	68			902	
628644	7.464				
628894	7.446				
629144	7.403				824	
629394	7.784				
629644	7.454				
629894	7.446				836	
630144	7.461				
630394	7.457				
630644	7.464				
630894	7.548			2.2900390625	867	
631144	10.003				
631394	10.781				
631644	11.616				781	
631894	10.65				
632144	8.17				
632394	8.13				790	
632644	8.25				
632894	12.719				
633144	13.239				
633394	8.582	70			890	
633644	8.01				
633894	7.925				
634144	7.833				813	
634394	7.713				
634644	7.645				
634894	7.508				843	
635144	7.49				
635394	8.816				
635644	7.496				
635894	7.485			2.314453125	860	
636144	7.45				
636394	7.399				
636644	7.359				855	
636894	7.353				
637144	7.388				
637394	7.416				821	
637644	11.759				
637894	7.77				
638144	14.353				
638394	16.616	71			890	
638644	9.462				
638894	8.513				
639144	8.148				
639394	8.308				899	
639644	8.45				
639894	8.473				
640144	8.433				855	
640394	8.319				
640644	8.239				
640894	8.205			2.3388671875	836	
641144	8.222				
641394	8.239				
641644	8.199				
641894	8.228				855	
642144	8.873				
642394	8.039				
642644	7.89				833	
642894	7.788				
643144	7.713				
643394	7.645	70			796	
643644	7.582				
643894	7.508				
644144	7.479				
644394	7.439				860	
644644	7.416				
644894	7.473				
645144	7.502				855	
645394	7.508				
645644	7.508				
645894	7.502			2.265625	821	
646144	7.473				
646394	7.422				
646644	7.382				
646894	7.353				871	
647144	7.336				
647394	7.336				
647644	7.342				
647894	7.342				906	
648144	7.33				
648394	7.325	70			
648644	7.313				832	
648894	7.302				
649144	7.353				
649394	7.599				879	
649644	7.919				
649894	8.136				
650144	8.382				
650394	8.502				918	
650644	11.856				
650894	9.033			2.3583984375	
651144	8.108				
651394	7.982				883	
651644	7.833				
651894	7.736				
652144	7.679				832	
652394	7.599				
652644	7.548				
652894	7.553				879	
653144	9.919				
653394	11.827	69			
653644	12.799				
653894	7.713				859	
654144	7.616				
654394	7.605				
654644	7.622				832	
654894	7.593				
655144	10.782				
655394	8.508				
655644	7.439				859	
655894	10.33			2.275390625	
656144	8.976				
656394	7.41				856	
656644	7.348				
656894	7.336				
657144	7.319				785	
657394	7.273				
657644	7.222				
657894	7.199				
658144	7.262				836	
658394	7.576	70			
658644	7.816				
658894	8.068				855	
659144	8.199				
659394	8.268				
659644	8.245				727	
659894	8.182				
660144	8.13				
660394	11.205				738	
660644	8.285				
660894	8.216			2.265625	
661144	8.193				797	
661394	10.222				
661644	11.742				
661894	9.079				848	
662144	8.548				
662394	11.29				
662644	15.707				
662894	8.519				785	
663144	8.039				
663394	9.987	74			
663644	10.547				844	
663894	7.788				
664144	7.359				
664394	7.296				871	
664644	7.268				
664894	7.222				
665144	7.205				
665394	7.165				820	
665644	7.159				
665894	7.165			2.3388671875	
666144	7.188				809	
666394	7.313				
666644	11.707				
666894	7.948				859	
667144	7.948				
667394	15.747				
667644	18.09				
667894	15.029				840	
668144	8.148				
668394	7.085	73			
668644	7.742				824	
668894	7.645				
669144	10.925				
669394	7.942				824	
669644	7.41				
669894	7.353				
670144	7.462				793	
670394	18.124				
670644	33.99				
670894	9.892			2.3388671875	
671144	9.028				774	
671394	10.953				
671644	8.713				
671894	7.142				812	
672144	12.016				
672394	7.559				
672644	13.622				797	
672894	11.045				
673144	13.09				
673394	12.376	73			734	
673644	8.513				
673894	7.268				
674144	8.748				778	
674394	10.65				
674644	7.313				
674894	7.325				812	
675144	7.342				
675394	7.336				
675644	7.422				711	
675894	7.359			2.3046875	
676144	8.096				
676394	7.873				789	
676644	7.405				
676894	7.89				
677144	11.862				
677394	9.319				809	
677644	9.565				
677894	9.599				
678144	9.553				785	
678394	9.536	76			
678644	9.53				
678894	9.542				785	
679144	9.553				
679394	9.53				
679644	9.485				774	
679894	12.736				
680144	10.342				
680394	9.365				761	
680644	9.593				
680894	9.873			2.28515625	
681144	10.107				832	
681394	10.267				
681644	10.296				
681894	10.267				
682144	10.107				860	
682394	9.993				
682644	9.862				
682894	9.719				832	
683144	13.616				
683394	9.685	75			
683644	16.438				812	
683894	11.266				
684144	8.405				
684394	9.245				
684644	9.422				867	
684894	9.382				
685144	9.462				
685394	9.462				883	
685644	9.422				
685894	13.067			2.3583984375	
686144	10.439				
686394	9.307				832	
686644	9.205				
686894	9.182				
687144	9.159				903	
687394	9.142				
687644	9.148				
687894	9.136				
688144	9.09				882	
688394	9.05	70			
688644	12.519				
688894	13.599				821	
689144	12.399				
689394	14.427				
689644	16.85				
689894	14.277				879	
690144	8.45				
690394	9.187				
690644	9.165				859	
690894	9.13			2.3486328125	
691144	9.056				
691394	8.999				824	
691644	8.948				
691894	8.896				
692144	8.856				
692394	8.833				867	
692644	13.416				
692894	9.182				
693144	15.279				891	
693394	13.416	69			
693644	23.255				
693894	48.649				
694144	48.637				824	
694394	21.851				
694644	10.358				
694894	9.239				840	
695144	10.205				
695394	10.005				
695644	9.81				
695894	9.645			2.3486328125	887	
696144	11.233				
696394	23.284				
696644	48.697				851	
696894	36.367				
697144	10.322				
697394	8.839				840	
697644	9.759				
697894	9.622				
698144	9.485				
698394	9.325	70			828	
698644	9.17				
698894	9.073				
699144	8.879				813	
699394	8.782				
699644	8.679				
699894	8.622				762	
700144	8.548				
700394	8.479				
700644	8.456				808	
700894	8.428			2.265625	
701144	8.416				
701394	8.416				813	
701644	8.633				
701894	8.645				
702144	11.587				746	
702394	12.507				
702644	22.787				
702894	12.974				
703144	7.736				808	
703394	12.233	73			
703644	9.079				
703894	10.507				817	
704144	8.999				
704394	9.016				
704644	13.324				711	
704894	11.376				
705144	21.724				
705394	11.983				758	
705644	11.193				
705894	13.793			2.28515625	
706144	8.805				836	
706394	11.267				
706644	23.284				
706894	48.661				800	
707144	48.673				
707394	48.661				
707644	48.721				
707894	48.637				832	
708144	48.601				
708394	17.801	75			
708644	8.458				864	
708894	7.313				
709144	8.102				
709394	11.662				851	
709644	9.525				
709894	10.57				
710144	8.965				
710394	10.673				797	
710644	10.25				
710894	11.587			2.3583984375	
711144	11.719				856	
711394	8.319				
711644	8.913				
711894	9.925				824	
712144	8.022				
712394	7.959				
712644	7.936				758	
712894	11.165				
713144	11.542				
713394	15.53	73			
713644	7.976				800	
713894	7.856				
714144	7.862				
714394	7.839				821	
714644	7.816				
714894	7.776				
715144	7.765				738	
715394	7.748				
715644	7.73				
715894	7.713			2.314453125	773	
716144	7.713				
716394	16.004				
716644	22.962				840	
716894	18.685				
717144	8.649				
717394	11.999				
717644	21.678				817	
717894	11.17				
718144	7.125				
718394	7.742	74			793	
718644	7.696				
718894	8.553				
719144	8.05				859	
719394	7.633				
719644	7.61				
719894	7.588				
720144	10.05				836	
720394	8.765				
720644	7.559				
720894	7.513			2.3388671875	797	
721144	7.525				
721394	7.542				
721644	7.593				855	
721894	7.685				
722144	11.142				
722394	7.713				
722644	11.256				848	
722894	9.313				
723144	7.908				
723394	7.565	73			758	
723644	7.565				
723894	7.645				
724144	7.902				812	
724394	8.17				
724644	10.702				
724894	8.65				871	
725144	8.519				
725394	8.508				
725644	8.445				770	
725894	8.348			2.265625	
726144	8.239				
726394	8.165				
726644	8.159				801	
726894	10.125				
727144	8.593				
727394	8.125				855	
727644	8.062				
727894	7.999				
728144	7.913				844	
728394	7.816	73			
728644	7.776				
728894	7.748				
729144	7.702				824	
729394	7.69				
729644	7.69				
729894	7.685				906	
730144	7.679				
730394	7.645				
730644	7.622				793	
730894	7.582			2.3388671875	
731144	7.542				
731394	7.508				
731644	7.473				813	
731894	7.433				
732144	7.416				
732394	7.405				894	
732644	7.445				
732894	7.479				
733144	7.553				
733394	7.565	71			817	
733644	7.559				
733894	7.553				
734144	7.519				800	
734394	7.485				
734644	7.428				
734894	7.41				883	
735144	7.41				
735394	7.41				
735644	11.524				
735894	7.719			2.3583984375	844	
736144	7.45				
736394	9.302				
736644	14.496				809	
736894	9.793				
737144	11.336				
737394	7.468				847	
737644	13.199				
737894	7.719				
738144	7.399				
738394	11.776	71			840	
738644	7.639				
738894	8.942				
739144	8.108				813	
739394	7.473				
739644	8.902				
739894	8.199				847	
740144	7.245				
740394	7.25				
740644	7.308				
740894	18.216			2.314453125	821	
741144	9.175				
741394	6.605				
741644	7.083				804	
741894	8.381				
742144	7.603				
742394	7.483				801	
742644	9.341				
742894	9.133				
743144	7.595				832	
743394	7.464	72			
743644	7.501				
743894	7.508				
744144	7.523				813	
744394	7.552				
744644	7.559				
744894	7.606				785	
745144	7.541				
745394	7.497				
745644	9.032				855	
745894	9.523			2.265625	
746144	7.49				
746394	7.464				813	
746644	7.454				
746894	7.424				
747144	7.388				758	
747394	7.377				
747644	7.446				
747894	7.501				
748144	11.032				835	
748394	8.662	73			
748644	7.365				
748894	7.342				883	
749144	7.313				
749394	7.285				
749644	7.29				746	
749894	7.319				
750144	7.376				
750394	7.479				
750644	8.85				836	
750894	7.81			2.3583984375	
751144	7.673				
751394	7.65				871	
751644	7.61				
751894	7.565				
752144	7.525				
752394	7.468				868	
752644	7.428				
752894	10.079				
753144	7.336				832	
753394	7.239	72			
753644	7.193				
753894	7.159				871	
754144	7.136				
754394	7.113				
754644	7.142				
754894	7.165				867	
755144	7.205				
755394	7.239				
755644	7.273				797	
755894	7.308			2.3486328125	
756144	7.308				
756394	7.302				859	
756644	7.308				
756894	7.268				
757144	7.256				
757394	7.239				844	
757644	7.205				
757894	7.205				
758144	7.17				797	
758394	7.142	71			
758644	7.125				
758894	7.073				847	
759144	7.05				
759394	7.045				
759644	7.039				
759894	7.039				879	
760144	7.045				
760394	7.062				
760644	7.096				797	
760894	7.125			2.2265625	
761144	7.142				
761394	7.142				
761644	7.119				848	
761894	7.125				
762144	7.125				
762394	7.125				875	
762644	7.079				
762894	7.062				
763144	7.05				824	
763394	7.033	71			
763644	7.022				
763894	7.005				
764144	6.999				836	
764394	7.033				
764644	7.102				
764894	8.942				906	
765144	8.159				
765394	7.433				
765644	7.496				
765894	7.502			2.294921875	809	
766144	7.496				
766394	7.439				
766644	7.388				808	
766894	7.336				
767144	7.313				
767394	7.696				883	
767644	7.462				
767894	7.245				
768144	7.205				
768394	7.205	70			817	
768644	7.205				
768894	7.165				
769144	7.136				777	
769394	7.113				
769644	7.108				
769894	7.056				856	
770144	7.039				
770394	7.005				
770644	6.97				
770894	9.673			2.3388671875	859	
771144	7.176				
771394	6.948				
771644	6.942				777	
771894	10.873				
772144	12.124				
772394	15.519				817	
772644	15.381				
772894	7.239				
773144	6.873				871	
773394	6.833	72			
773644	6.585				
773894	6.995				
774144	8.559				812	
774394	7.032				
774644	6.934				
774894	6.992				852	
775144	7.235				
775394	8.137				
775644	8.41				
775894	8.853			2.3486328125	894	
776144	9.112				
776394	9.17				
776644	9.232				801	
776894	9.232				
777144	9.141				
777394	9.01				871	
777644	8.879				
777894	10.472				
778144	9.193				
778394	8.25	71			871	
778644	8.125				
778894	8.045				
779144	7.976				828	
779394	9.65				
779644	17.433				
779894	20.011				840	
780144	20.047				
780394	16.965				
780644	8.291				
780894	7.416			2.3583984375	891	
781144	8.29				
781394	12.13				
781644	8.188				840	
781894	8.096				
782144	13.01				
782394	8.045				
782644	7.908				836	
782894	7.85				
783144	7.873				
783394	7.97	70			847	
783644	8.159				
783894	8.302				
784144	8.433				840	
784394	8.439				
784644	14.57				
784894	15.513				
785144	8.645				844	
785394	10.702				
785644	12.742				
785894	12.61			2.3486328125	891	
786144	11.039				
786394	13.45				
786644	8.828				
786894	12.49				800	
787144	23.301				
787394	34.921				
787644	9.88				797	
787894	8.902				
788144	11.153				
788394	13.176	71			891	
788644	22.352				
788894	20.752				
789144	9.701				
789394	12.582				797	
789644	9.776				
789894	8.73				
790144	8.565				816	
790394	9.199				
790644	9.502				
790894	15.667			2.3388671875	871	
791144	10.942				
791394	13.639				
791644	9.09				789	
791894	14.781				
792144	8.285				
792394	8.096				
792644	8.05				805	
792894	7.999				
793144	15.547				
793394	13.776	72			848	
793644	8.199				
793894	7.97				
794144	7.913				843	
794394	7.942				
794644	7.925				
794894	7.902				
795144	7.879				809	
795394	7.862				
795644	7.839				
795894	9.925			2.333984375	852	
796144	8.77				
796394	7.839				
796644	7.805				
796894	7.782				859	
797144	7.753				
797394	7.725				
797644	7.696				777	
797894	7.662				
798144	7.628				
798394	7.599	72			789	
798644	9.81				
798894	14.633				
799144	11.125				852	
799394	7.839				
799644	7.868				
799894	7.936				801	
800144	8.068				
800394	8.17				
800644	8.25				
800894	8.262			2.3291015625	781	
801144	8.319				
801394	8.422				
801644	8.496				848	
801894	8.57				
802144	8.628				
802394	10.273				847	
802644	20.901				
802894	48.709				
803144	37.191				766	
803394	10.214	73			
803644	18.741				
803894	13.548				
804144	7.828				832	
804394	15.221				
804644	21.244				
804894	17.837				820	
805144	10.585				
805394	7.73				
805644	8.61				766	
805894	8.582			2.34375	
806144	8.485				
806394	8.405				816	
806644	8.319				
806894	11.45				
807144	10.073				758	
807394	12.227				
807644	8.273				
807894	12.667				742	
808144	8.919				
808394	8.228	75			
808644	8.25				766	
808894	8.462				
809144	8.873				
809394	15.867				
809644	9.525				820	
809894	9.262				
810144	17.136				
810394	11.29				797	
810644	8.193				
810894	11.542			2.2607421875	
811144	9.965				754	
811394	8.696				
811644	8.565				
811894	8.456				809	
812144	8.41				
812394	8.308				
812644	8.256				800	
812894	11.302				
813144	9.399				
813394	9.062	76			707	
813644	11.165				
813894	8.988				
814144	8.045				825	
814394	8.05				
814644	8.073				
814894	13.022				
815144	9.445				816	
815394	11.924				
815644	18.455				
815894	10.274			2.3388671875	754	
816144	7.382				
816394	11.547				
816644	8.182				769	
816894	8.028				
817144	7.976				
817394	7.959				793	
817644	15.347				
817894	23.238				
818144	42.281				782	
818394	9.772	76			
818644	7.416				
818894	8.108				711	
819144	8.153				
819394	8.193				
819644	8.17				769	
819894	8.142				
820144	8.136				
820394	8.102				828	
820644	8.085				
820894	8.056			2.3388671875	
821144	8.005				793	
821394	7.959				
821644	7.925				
821894	7.885				
822144	7.896				813	
822394	14.067				
822644	7.913				
822894	9.633				894	
823144	20.632				
823394	10.465	75			
823644	7.113				
823894	21.741				856	
824144	48.685				
824394	48.661				
824644	48.637				804	
824894	25.435				
825144	7.897				
825394	7.125				879	
825644	8.073				
825894	15.999			2.34375	
826144	27.896				
826394	33.261				852	
826644	48.637				
826894	42.233				
827144	17.001				805	
827394	48.721				
827644	48.697				
827894	17.455				843	
828144	19.426				
828394	7.849	71			
828644	7.239				
828894	8.022				899	
829144	11.279				
829394	15.484				
829644	8.468				
829894	9.427				879	
830144	10.285				
830394	8.302				
830644	8.21				859	
830894	8.153			2.3583984375	
831144	8.085				
831394	8.05				
831644	8.359				906	
831894	8.942				
832144	8.593				
832394	8.456				864	
832644	7.885				
832894	7.828				
833144	7.793				835	
833394	7.759	69			
833644	7.742				
833894	7.725				
834144	7.725				883	
834394	7.736				
834644	7.73				
834894	7.736				860	
835144	7.702				
835394	7.696				
835644	7.668				
835894	7.633			2.3388671875	816	
836144	7.605				
836394	7.582				
836644	7.582				871	
836894	7.582				
837144	7.576				
837394	10.913				
837644	9.079				871	
837894	7.599				
838144	19.215				
838394	40.453	69			821	
838644	8.661				
838894	6.719				
839144	7.221				
839394	7.657				894	
839644	7.85				
839894	7.617				
840144	7.628				895	
840394	7.646				
840644	7.664				
840894	7.657			2.3583984375	808	
841144	7.65				
841394	7.643				
841644	7.624				
841894	8.679				863	
842144	8.272				
842394	8.759				
842644	11.301				872	
842894	8.959				
843144	7.668				
843394	7.639	70			781	
843644	10.37				
843894	9.382				
844144	7.548				
844394	7.496				824	
844644	7.428				
844894	7.416				
845144	7.382				871	
845394	7.365				
845644	7.348				
845894	7.348			2.34375	813	
846144	7.353				
846394	7.382				
846644	7.382				
846894	7.788				828	
847144	7.782				
847394	7.576				
847644	7.662				906	
847894	10.696				
848144	8.69				
848394	10.176	70			
848644	7.845				891	
848894	7.959				
849144	8.165				
849394	8.376				851	
849644	8.542				
849894	8.605				
850144	8.633				
850394	8.593				899	
850644	8.536				
850894	8.445			2.3046875	
851144	8.382				882	
851394	8.296				
851644	8.17				
851894	8.108				
852144	8.068				801	
852394	8.01				
852644	7.97				
852894	7.982				852	
853144	8.108				
853394	8.302	69			
853644	8.502				855	
853894	8.633				
854144	8.685				
854394	8.708				
854644	8.668				805	
854894	8.605				
855144	9.028				
855394	8.49				828	
855644	8.365				
855894	8.262			2.3388671875	
856144	8.205				859	
856394	8.142				
856644	8.096				
856894	8.073				
857144	8.05				813	
857394	7.993				
857644	7.976				
857894	7.953				805	
858144	7.965				
858394	7.948	71			
858644	7.948				855	
858894	7.93				
859144	7.93				
859394	7.919				
859644	7.89				828	
859894	7.879				
860144	7.89				
860394	7.913				793	
860644	7.93				
860894	7.936			2.333984375	
861144	7.948				848	
861394	7.936				
861644	7.953				
861894	7.948				
862144	7.936				851	
862394	7.953				
862644	7.948				
862894	7.936				778	
863144	7.93				
863394	7.896	72			
863644	7.873				797	
863894	7.862				
864144	7.856				
864394	7.839				851	
864644	7.799				
864894	7.77				
865144	7.77				
865394	7.742				817	
865644	7.753				
865894	7.782			2.265625	
866144	7.845				789	
866394	7.873				
866644	7.89				
866894	7.908				828	
867144	7.936				
867394	8.582				
867644	8.342				804	
867894	7.873				
868144	7.805				
868394	7.788	73			715	
868644	7.799				
868894	7.885				
869144	8.085				
869394	8.273				852	
869644	8.445				
869894	8.508				
870144	8.559				871	
870394	9.302				
870644	9.159				
870894	8.41			2.3388671875	824	
871144	11.947				
871394	11.564				
871644	8.222				766	
871894	11.742				
872144	16.181				
872394	10.716				
872644	14.57				855	
872894	11.747				
873144	9.37				
873394	9.365	73			797	
873644	9.336				
873894	9.222				
874144	9.119				793	
874394	8.93				
874644	8.828				
874894	8.748				
875144	8.65				871	
875394	8.616				
875644	8.57				
875894	8.542			2.3388671875	852	
876144	12.559				
876394	11.833				
876644	10.33				797	
876894	10.405				
877144	16.553				
877394	48.625				
877644	48.613				859	
877894	48.685				
878144	48.697				
878394	48.685	72			852	
878644	47.55				
878894	13.631				
879144	8.182				785	
879394	10.685				
879644	10.633				
879894	8.965				812	
880144	8.736				
880394	8.765				
880644	8.776				
880894	8.748			2.265625	871	
881144	8.685				
881394	8.605				
881644	8.542				825	
881894	8.479				
882144	8.428				
882394	8.37				789	
882644	8.308				
882894	8.313				
883144	8.296				
883394	8.302	72			879	
883644	8.256				
883894	8.216				
884144	8.29				843	
884394	12.187				
884644	14.89				
884894	21.804				
885144	32.305				817	
885394	44.957				
885644	48.685				
885894	48.697			2.36328125	836	
886144	45.136				
886394	11.075				
886644	7.393				816	
886894	8.062				
887144	8.045				
887394	8.033				785	
887644	8.005				
887894	7.976				
888144	7.965				
888394	7.948	72			836	
888644	7.93				
888894	7.913				
889144	7.873				805	
889394	7.868				
889644	7.839				
889894	8.868				758	
890144	7.816				
890394	7.873				
890644	7.85				836	
890894	7.816			2.236328125	
891144	7.793				
891394	7.748				
891644	7.685				871	
891894	7.639				
892144	7.599				
892394	7.599				757	
892644	7.645				
892894	7.696				
893144	7.77				813	
893394	7.845	73			
893644	7.982				
893894	7.959				848	
894144	7.953				
894394	7.81				
894644	7.748				
894894	7.742				828	
895144	7.73				
895394	7.713				
895644	15.17				836	
895894	10.713			2.2705078125	
896144	10.387				
896394	8.05				
896644	8.148				859	
896894	11.964				
897144	9.667				
897394	16.061				899	
897644	30.202				
897894	13.787				
898144	11.125				816	
898394	10.056	71			
898644	9.896				
898894	9.707				
899144	9.53				844	
899394	9.325				
899644	9.187				
899894	9.028				894	
900144	8.856				
900394	8.765				
900644	8.628				781	
900894	8.548			2.3388671875	
901144	8.49				
901394	10.165				
901644	9.205				825	
901894	8.399				
902144	10.067				
902394	8.353				894	
902644	8.268				
902894	8.233				
903144	8.868				
903394	8.165	70			813	
903644	8.125				
903894	8.102				
904144	8.09				804	
904394	10.57				
904644	9.222				
904894	8.388				836	
905144	8.096				
905394	8.033				
905644	8.022				
905894	7.982			2.275390625	910	
906144	7.965				
906394	7.919				
906644	7.925				836	
906894	7.89				
907144	7.879				
907394	7.879				
907644	7.913				872	
907894	7.896				
908144	13.364				
908394	8.142	70			847	
908644	7.896				
908894	7.885				
909144	7.845				793	
909394	7.862				
909644	8.005				
909894	8.096				
910144	8.159				871	
910394	8.313				
910644	8.193				
910894	8.068			2.3388671875	840	
911144	8.062				
911394	8.073				
911644	8.056				777	
911894	8.033				
912144	7.999				
912394	8.668				813	
912644	7.936				
912894	7.885				
913144	13.696				
913394	10.319	71			871	
913644	10.136				
913894	8.09				
914144	8.05				789	
914394	8.01				
914644	7.97				
914894	7.942				828	
915144	7.896				
915394	13.193				
915644	23.289				
915894	44.957			2.3388671875	844	
916144	10.824				
916394	7.068				
916644	20.067				816	
916894	48.697				
917144	48.697				
917394	32.544				774	
917644	8.004				
917894	9.028				
918144	14.13				
918394	23.289	72			879	
918644	48.649				
918894	48.685				
919144	31.791				824	
919394	31.947				
919644	18.171				
919894	27.789				797	
920144	14.073				
920394	7.199				
920644	7.839				847	
920894	7.845			2.3486328125	
921144	7.776				
921394	7.77				
921644	7.742				848	
921894	7.719				
922144	7.708				
922394	7.702				758	
922644	7.69				
922894	7.656				
923144	7.639				812	
923394	7.593	73			
923644	10.622				
923894	13.296				
924144	8.879				856	
924394	10.753				
924644	9.365				
924894	7.536				785	
925144	7.53				
925394	7.57				
925644	7.662				801	
925894	7.725			2.3486328125	
926144	7.788				
926394	10.645				859	
926644	23.284				
926894	26.75				
927144	8.351				
927394	7.239				813	
927644	8.062				
927894	8.199				
928144	8.473				781	
928394	8.542	73			
928644	8.628				
928894	8.222				828	
929144	10.062				
929394	9.633				
929644	9.987				859	
929894	7.993				
930144	7.942				
930394	7.902				
930644	7.89				766	
930894	7.873			2.3388671875	
931144	7.85				
931394	7.85				840	
931644	7.873				
931894	7.885				
932144	7.896				871	
932394	7.89				
932644	7.868				
932894	7.839				777	
933144	7.799				
933394	7.765	73			
933644	7.748				
933894	7.719				817	
934144	7.702				
934394	7.702				
934644	7.696				859	
934894	7.679				
935144	7.673				
935394	7.679				789	
935644	7.662				
935894	7.61			2.2412109375	
936144	7.616				781	
936394	7.582				
936644	7.588				
936894	10.119				
937144	7.662				836	
937394	7.599				
937644	7.582				
937894	7.536				883	
938144	7.496				
938394	7.485	73			
938644	7.473				731	
938894	7.428				
939144	7.422				
939394	7.439				
939644	7.456				816	
939894	7.445				
940144	7.456				
940394	7.439				863	
940644	7.593				
940894	7.399			2.294921875	
941144	7.382				801	
941394	7.376				
941644	7.422				
941894	7.473				813	
942144	7.57				
942394	7.662				
942644	7.702				
942894	7.702				863	
943144	7.708				
943394	7.702	73			
943644	7.673				844	
943894	7.588				
944144	7.57				
944394	7.536				
944644	7.53				816	
944894	7.565				
945144	7.599				
945394	7.605				875	
945644	7.599				
945894	7.605			2.255859375	
946144	7.576				848	
946394	7.565				
946644	7.536				
946894	7.508				
947144	7.485				789	
947394	7.456				
947644	7.439				
947894	7.433				832	
948144	7.433				
948394	7.428	71			
948644	7.428				832	
948894	7.399				
949144	7.422				
949394	7.456				777	
949644	7.513				
949894	7.525				
950144	7.525				758	
950394	7.548				
950644	7.525				
950894	7.502			2.3486328125	
951144	7.513				789	
951394	7.49				
951644	7.49				
951894	7.49				770	
952144	7.456				
952394	7.428				
952644	7.439				765	
952894	7.439				
953144	7.399				
953394	7.405	74			824	
953644	7.422				
953894	7.388				
954144	7.37				758	
954394	7.336				
954644	7.325				
954894	7.336				836	
955144	7.319				
955394	7.313				
955644	7.33				
955894	18.267			2.3583984375	828	
956144	10.083				
956394	6.571				
956644	7.068				793	
956894	7.494				
957144	7.504				
957394	7.475				766	
957644	7.508				
957894	7.526				
958144	7.61				828	
958394	7.679	75			
958644	7.697				
958894	7.708				797	
959144	7.708				
959394	7.679				
959644	7.839				734	
959894	7.675				
960144	7.592				
960394	7.577				
960644	7.555				801	
960894	7.548			2.36328125	
961144	7.552				
961394	7.548				828	
961644	7.559				
961894	7.577				
962144	7.595				778	
962394	7.581				
962644	7.581				
962894	7.577				769	
963144	7.584				
963394	7.617	75			
963644	7.661				801	
963894	8.464				
964144	9.781				
964394	7.875				777	
964644	7.832				
964894	7.839				
965144	7.799				711	
965394	7.748				
965644	7.715				
965894	7.694			2.3583984375	789	
966144	7.683				
966394	9.13				
966644	8.555				781	
966894	7.694				
967144	7.621				
967394	7.599				
967644	7.606				766	
967894	7.617				
968144	7.635				
968394	7.635	76			813	
968644	7.595				
968894	9.643				
969144	7.937				859	
969394	12.039				
969644	8.05				
969894	7.273				816	
970144	7.233				
970394	7.21				
970644	7.205				
970894	7.188			2.3388671875	793	
971144	7.193				
971394	7.188				
971644	7.182				848	
971894	7.313				
972144	7.336				
972394	10.336				836	
972644	8.056				
972894	7.239				
973144	7.222				769	
973394	7.182	74			
973644	7.199				
973894	7.21				
974144	7.273				825	
974394	11.09				
974644	23.267				
974894	48.637				800	
975144	48.733				
975394	44.563				
975644	44.874				743	
975894	48.518			2.3583984375	
976144	44.933				
976394	12.795				797	
976644	9.199				
976894	11.159				
977144	7.468				
977394	7.268				859	
977644	7.33				
977894	7.313				
978144	7.325				777	
978394	10.05	74			
978644	7.422				
978894	7.142				805	
979144	7.096				
979394	7.096				
979644	7.068				844	
979894	7.056				
980144	7.039				
980394	7.028				
980644	10.039				816	
980894	7.428			2.265625	
981144	7.016				
981394	7.022				758	
981644	7.039				
981894	13.044				
982144	22.164				836	
982394	10.967				
982644	6.473				
982894	6.715				765	
983144	7.53				
983394	8.05	75			
983644	8.21				719	
983894	8.984				
984144	9.413				
984394	7.472				770	
984644	7.457				
984894	7.443				
985144	7.403				804	
985394	7.366				
985644	7.355				
985894	9.075			2.3583984375	735	
986144	9.541				
986394	14.824				
986644	23.204				769	
986894	37.944				
987144	19.856				
987394	26.511				813	
987644	7.933				
987894	8.45				
988144	8.588				762	
988394	8.142	77			
988644	8.136				
988894	8.153				
989144	8.045				769	
989394	10.896				
989644	9.187				
989894	7.976				828	
990144	7.93				
990394	10.073				
990644	7.833				754	
990894	7.765			2.2705078125	
991144	7.725				
991394	7.696				758	
991644	11.439				
991894	22.501				
992144	30.967				793	
992394	14.42				
992644	10.191				
992894	6.731				773	
993144	7.254				
993394	7.712	77			
993644	14.795				778	
993894	17.416				
994144	9.462				
994394	6.879				797	
994644	7.793				
994894	7.65				
995144	7.53				
995394	7.519				789	
995644	7.525				
995894	13.21			2.3486328125	
996144	11.045				765	
996394	7.839				
996644	12.09				
996894	23.255				758	
997144	48.685				
997394	48.613				
997644	48.649				785	
997894	48.685				
998144	20.525				
998394	7.479	77			746	
998644	6.879				
998894	7.393				
999144	7.348				735	
999394	12.576				
999644	7.753				
999894	7.388				781	
1000144	7.319				
1000394	7.319				
1000644	7.319				766	
1000894	7.308			2.3583984375	
1001144	7.302				
1001394	7.29				687	
1001644	7.262				
1001894	7.239				
1002144	7.233				731	
1002394	7.205				
1002644	7.176				
1002894	7.313				769	
1003144	10.982				
1003394	9.142	79			
1003644	14.547				750	
1003894	15.644				
1004144	13.639				
1004394	8.279				754	
1004644	15.999				
1004894	47.335				
1005144	14.265				805	
1005394	6.885				
1005644	7.313				
1005894	7.982			2.3486328125	851	
1006144	7.61				
1006394	7.393				
1006644	7.405				758	
1006894	11.387				
1007144	23.272				
1007394	48.637				
1007644	48.685				832	
1007894	48.661				
1008144	48.697				
1008394	40.955	77			840	
1008644	9.462				
1008894	8.885				
1009144	13.073				828	
1009394	8.656				
1009644	8.193				
1009894	8.108				766	
1010144	8.056				
1010394	7.999				
1010644	7.936				
1010894	7.885			2.3486328125	816	
1011144	8.445				
1011394	14.301				
1011644	10.21				824	
1011894	10.856				
1012144	7.908				
1012394	7.776				723	
1012644	9.65				
1012894	7.999				
1013144	8.045				777	
1013394	8.119	74			
1013644	8.216				
1013894	8.285				836	
1014144	8.239				
1014394	8.199				
1014644	8.159				793	
1014894	8.113				
1015144	8.05				
1015394	7.982				
1015644	7.925				754	
1015894	7.879			2.3388671875	
1016144	7.85				
1016394	7.799				840	
1016644	7.782				
1016894	7.759				
1017144	7.725				848	
1017394	7.702				
1017644	7.668				
1017894	7.616				777	
1018144	7.593				
1018394	7.582	75			
1018644	9.725				
1018894	7.896				816	
1019144	7.685				
1019394	7.662				
1019644	8.182				813	
1019894	14.656				
1020144	7.719				
1020394	7.593				722	
1020644	7.582				
1020894	7.582			2.34375	
1021144	7.588				754	
1021394	7.628				
1021644	7.696				
1021894	7.753				758	
1022144	8.565				
1022394	11.604				
1022644	8.605				754	
1022894	8.068				
1023144	7.885				
1023394	7.845	76			707	
1023644	7.856				
1023894	11.353				
1024144	16.01				817	
1024394	24.253				
1024644	14.277				
1024894	10.673				777	
1025144	8.828				
1025394	8.799				
1025644	8.748				699	
1025894	8.708			2.3291015625	
1026144	8.988				
1026394	8.77				805	
1026644	8.788				
1026894	8.776				
1027144	8.708				859	
1027394	8.65				
1027644	8.57				
1027894	8.485				
1028144	8.433				871	
1028394	18.335	76			
1028644	27.681				
1028894	19.45				774	
1029144	17.144				
1029394	12.449				
1029644	7.422				847	
1029894	8.222				
1030144	8.29				
1030394	8.319				
1030644	13.102				844	
1030894	8.542			2.255859375	
1031144	8.428				
1031394	8.376				770	
1031644	8.336				
1031894	8.273				
1032144	8.233				777	
1032394	8.953				
1032644	11.085				
1032894	8.199				824	
1033144	8.165				
1033394	8.165	74			
1033644	8.153				778	
1033894	9.547				
1034144	17.93				
1034394	10.226				
1034644	7.599				785	
1034894	16.067				
1035144	11.445				
1035394	7.25				785	
1035644	8.256				
1035894	9.25			2.3388671875	
1036144	8.622				851	
1036394	8.696				
1036644	12.359				
1036894	11.462				747	
1037144	8.719				
1037394	10.016				
1037644	8.342				789	
1037894	7.925				
1038144	7.919				
1038394	8.433	75			
1038644	8.353				820	
1038894	8.388				
1039144	8.273				
1039394	7.828				750	
1039644	7.788				
1039894	7.765				
1040144	7.753				742	
1040394	8.313				
1040644	8.942				
1040894	8.622			2.3193359375	781	
1041144	7.896				
1041394	7.776				
1041644	7.765				754	
1041894	10.553				
1042144	22.929				699	
1042394	48.685				
1042644	48.637				
1042894	48.673				735	
1043144	48.649				
1043394	33.07	78			
1043644	7.873				762	
1043894	6.839				
1044144	7.352				
1044394	7.788				757	
1044644	7.774				
1044894	7.759				
1045144	7.744				711	
1045394	7.766				
1045644	7.799				
1045894	7.919			2.34375	789	
1046144	8.119				
1046394	8.355				
1046644	8.581				758	
1046894	8.73				
1047144	8.857				
1047394	12.817				731	
1047644	22.69				
1047894	48.661				
1048144	44.814				742	
1048394	13.13	80			
1048644	12.896				
1048894	22.015				773	
1049144	48.625				
1049394	48.625				
1049644	48.685				715	
1049894	48.649				
1050144	48.697				
1050394	48.709				750	
1050644	48.709				
1050894	48.756			2.3486328125	
1051144	48.697				727	
1051394	27.096				
1051644	43.93				
1051894	31.732				773	
1052144	28.159				
1052394	34.025				
1052644	15.531				692	
1052894	10.179				
1053144	17.924				
1053394	23.906	80			742	
1053644	8.614				
1053894	7.753				
1054144	12.902				793	
1054394	21.158				
1054644	11.708				
1054894	8.393				722	
1055144	9.502				
1055394	9.582				
1055644	12.073				817	
1055894	19.318			2.3095703125	
1056144	45.519				
1056394	35.22				
1056644	9.557				808	
1056894	7.93				
1057144	12.13				
1057394	21.804				750	
1057644	28.147				
1057894	19.617				711	
1058144	10.441				
1058394	9.616	79			
1058644	10.57				739	
1058894	10.467				
1059144	13.176				
1059394	10.445				726	
1059644	10.045				
1059894	9.913				
1060144	9.759				672	
1060394	9.65				
1060644	9.559				
1060894	9.49			2.3388671875	734	
1061144	9.439				
1061394	9.445				
1061644	14.061				801	
1061894	10.496				
1062144	13.496				
1062394	9.462				735	
1062644	10.782				
1062894	9.713				
1063144	9.227				773	
1063394	9.199	80			
1063644	9.17				
1063894	11.17				805	
1064144	10.147				
1064394	9.108				
1064644	9.056				738	
1064894	9.028				
1065144	8.982				
1065394	8.965				
1065644	9.01				785	
1065894	9.245			2.294921875	
1066144	9.61				
1066394	9.947				840	
1066644	10.553				
1066894	11.307				
1067144	11.456				773	
1067394	11.319				
1067644	13.707				
1067894	15.016				774	
1068144	22.832				
1068394	14.886	77			
1068644	9.187				859	
1068894	8.479				
1069144	9.53				
1069394	9.467				
1069644	9.387				754	
1069894	9.353				
1070144	9.33				
1070394	9.376				758	
1070644	9.507				
1070894	9.61			2.32421875	
1071144	9.713				777	
1071394	9.759				
1071644	9.713				
1071894	9.627				770	
1072144	9.565				
1072394	9.49				
1072644	9.393				695	
1072894	9.33				
1073144	9.239				
1073394	9.233	77			766	
1073644	9.279				
1073894	11.93				
1074144	9.759				758	
1074394	9.513				
1074644	9.496				
1074894	9.416				734	
1075144	9.376				
1075394	9.599				730	
1075644	12.187				
1075894	9.227			2.2900390625	
1076144	9.159				
1076394	9.13				793	
1076644	9.079				
1076894	9.085				
1077144	9.079				778	
1077394	9.05				
1077644	9.062				
1077894	9.05				699	
1078144	9.068				
1078394	9.079	80			723	
1078644	9.056				
1078894	11.896				
1079144	10.153				742	
1079394	8.896				
1079644	8.868				
1079894	8.873				730	
1080144	8.873				
1080394	13.107				
1080644	15.501				656	
1080894	21.272			2.3486328125	
1081144	48.649				
1081394	48.721				735	
1081644	48.721				
1081894	48.697				
1082144	48.721				734	
1082394	48.673				
1082644	48.673				
1082894	48.661				680	
1083144	48.721				
1083394	48.661	82			734	
1083644	48.613				
1083894	48.697				
1084144	29.139				
1084394	9.056				778	
1084644	9.565				
1084894	14.016				
1085144	8.919				730	
1085394	8.942				
1085644	9.187				715	
1085894	9.462			2.3583984375	
1086144	9.736				
1086394	9.902				762	
1086644	12.25				
1086894	13.896				
1087144	10.022				742	
1087394	9.902				
1087644	9.747				
1087894	9.645				680	
1088144	9.547				
1088394	9.45	82			
1088644	9.359				714	
1088894	9.325				
1089144	9.302				
1089394	9.307				762	
1089644	9.307				
1089894	9.285				
1090144	9.245				731	
1090394	9.233				
1090644	9.199				
1090894	9.159			2.3291015625	687	
1091144	9.108				
1091394	9.05				
1091644	9.016				742	
1091894	10.233				
1092144	23.255				
1092394	48.649				789	
1092644	48.697				
1092894	48.685				
1093144	48.721				754	
1093394	48.733	81			
1093644	48.613				
1093894	48.721				750	
1094144	48.625				
1094394	48.649				
1094644	17.634				785	
1094894	8.876				
1095144	8.273				
1095394	9.096				754	
1095644	9.142				
1095894	9.547			2.28515625	
1096144	22.735				715	
1096394	48.768				
1096644	36.917				
1096894	10.047				699	
1097144	8.296				
1097394	9.13				696	
1097644	14.839				
1097894	12.399				
1098144	11.13				648	
1098394	11.524	81			
1098644	11.593				
1098894	11.627				715	
1099144	11.993				
1099394	12.873				
1099644	12.547				809	
1099894	12.319				
1100144	12.576				
1100394	12.702				843	
1100644	12.776				
1100894	12.719			2.3583984375	
1101144	14.004				750	
1101394	16.518				
1101644	18.147				
1101894	17.407				
1102144	18.613				836	
1102394	18.124				
1102644	19.545				
1102894	20.023				879	
1103144	17.753				
1103394	18.219	79			
1103644	18.518				
1103894	13.667				801	
1104144	12.599				
1104394	13.753				
1104644	17.016				891	
1104894	15.913				
1105144	12.723				
1105394	11.77				
1105644	13.199				964	
1105894	13.17			2.24609375	
1106144	13.079				
1106394	13.033				
1106644	12.953				887	
1106894	12.947				
1107144	12.89				
1107394	20.672				969	
1107644	21.624				
1107894	18.9				
1108144	44.694				
1108394	48.661	69			937	
1108644	48.733				
1108894	48.768				
1109144	48.673				
1109394	48.649				899	
1109644	48.661				
1109894	48.601				
1110144	48.673				926	
1110394	48.685				
1110644	33.643				
1110894	22.508			2.28515625	
1111144	35.435				929	
1111394	28.972				
1111644	47.55				
1111894	48.541				
1112144	48.589				883	
1112394	48.673				
1112644	48.721				
1112894	48.685				949	
1113144	28.147				
1113394	22.042	64			
1113644	48.673				
1113894	43.476				965	
1114144	16.965				
1114394	29.796				
1114644	28.554				
1114894	12.413				836	
1115144	11.199				
1115394	12.193				
1115644	12.17				938	
1115894	12.136			2.314453125	
1116144	12.096				
1116394	12.067				
1116644	11.982				898	
1116894	18.267				
1117144	48.625				
1117394	48.685				828	
1117644	48.637				
1117894	48.673				
1118144	48.267				
1118394	48.697	66			879	
1118644	48.661				
1118894	48.649				
1119144	48.637				871	
1119394	20.465				
1119644	12.903				
1119894	11.399				
1120144	18.204				836	
1120394	39.33				
1120644	12.389				
1120894	10.485			2.3583984375	863	
1121144	14.439				
1121394	23.289				
1121644	48.649				828	
1121894	48.745				
1122144	48.721				
1122394	48.685				
1122644	25.352				786	
1122894	16.821				
1123144	12.018				
1123394	9.936	70			812	
1123644	10.885				
1123894	18.884				
1124144	48.601				848	
1124394	48.649				
1124644	48.637				
1124894	48.721				801	
1125144	48.637				
1125394	48.589				
1125644	48.625				
1125894	48.673			2.3486328125	824	
1126144	48.685				
1126394	48.589				
1126644	48.709				816	
1126894	48.661				
1127144	48.685				
1127394	33.667				754	
1127644	11.66				
1127894	9.519				
1128144	10.639				809	
1128394	10.667	73			
1128644	10.736				
1128894	10.816				781	
1129144	10.827				
1129394	10.816				
1129644	10.776				734	
1129894	10.725				
1130144	10.662				
1130394	10.587				754	
1130644	10.519				
1130894	10.473			2.3486328125	
1131144	10.513				711	
1131394	10.787				
1131644	18.753				
1131894	48.721				703	
1132144	48.673				
1132394	39.772				
1132644	11.732				668	
1132894	16.107				
1133144	23.548				
1133394	28.315	79			731	
1133644	31.003				
1133894	31.982				722	
1134144	31.779				
1134394	31.803				
1134644	32.03				700	
1134894	32.484				
1135144	32.186				
1135394	31.994				765	
1135644	31.337				
1135894	30.37			2.3583984375	
1136144	29.689				711	
1136394	27.669				
1136644	30.107				
1136894	29.33				668	
1137144	27.813				
1137394	27.861				656	
1137644	29.402				
1137894	29.067				
1138144	29.27				700	
1138394	31.361	85			
1138644	48.721				
1138894	38.96				769	
1139144	11.433				
1139394	9.873				
1139644	10.993				738	
1139894	10.896				
1140144	12.502				
1140394	15.867				692	
1140644	10.839				
1140894	10.605			2.3388671875	
1141144	10.525				738	
1141394	10.485				
1141644	10.45				
1141894	10.41				758	
1142144	10.41				
1142394	10.467				
1142644	10.342				719	
1142894	10.273				
1143144	10.245				
1143394	10.285	83			711	
1143644	10.296				
1143894	10.336				
1144144	10.427				777	
1144394	10.45				
1144644	10.433				
1144894	10.37				738	
1145144	10.342				
1145394	10.313				
1145644	10.279				727	
1145894	10.267			2.3291015625	
1146144	10.296				
1146394	10.342				797	
1146644	10.416				
1146894	10.502				
1147144	10.473				855	
1147394	10.456				
1147644	10.53				
1147894	10.759				
1148144	11.119				801	
1148394	11.604	78			
1148644	15.844				
1148894	22.969				797	
1149144	48.673				
1149394	48.733				
1149644	48.721				820	
1149894	48.649				
1150144	48.661				
1150394	48.733				832	
1150644	48.661				
1150894	47.442			2.3388671875	
1151144	48.661				738	
1151394	48.697				
1151644	48.625				
1151894	48.649				774	
1152144	48.637				
1152394	26.224				
1152644	9.952				734	
1152894	8.902				
1153144	9.942				
1153394	9.902	76			680	
1153644	9.89				
1153894	23.101				
1154144	48.661				762	
1154394	26.427				
1154644	11.636				
1154894	10.61				836	
1155144	11.793				
1155394	12.41				
1155644	13.313				703	
1155894	13.861			2.3388671875	
1156144	14.016				
1156394	13.936				769	
1156644	14.096				
1156894	14.347				
1157144	14.679				
1157394	14.89				805	
1157644	14.759				
1157894	14.056				
1158144	13.867				809	
1158394	15.707	78			
1158644	16.507				
1158894	18.41				781	
1159144	14.922				
1159394	17.084				
1159644	20.37				836	
1159894	20.668				
1160144	20.644				
1160394	20.549				785	
1160644	20.668				
1160894	20.226			2.3388671875	
1161144	20.31				
1161394	42.042				812	
1161644	48.601				
1161894	48.661				
1162144	48.637				868	
1162394	48.661				
1162644	48.637				
1162894	48.709				820	
1163144	48.601				
1163394	48.685	75			
1163644	48.685				
1163894	48.697				859	
1164144	48.613				
1164394	48.613				
1164644	48.637				867	
1164894	48.697				
1165144	48.649				
1165394	48.673				797	
1165644	48.673				
1165894	48.625			2.3486328125	
1166144	48.697				
1166394	48.709				848	
1166644	44.372				
1166894	48.625				
1167144	48.709				879	
1167394	48.697				
1167644	48.756				
1167894	48.721				
1168144	48.697				824	
1168394	48.685	71			
1168644	48.577				
1168894	48.721				844	
1169144	48.637				
1169394	44.36				
1169644	14.408				
1169894	12.21				883	
1170144	11.325				
1170394	12.473				
1170644	12.519				832	
1170894	12.536			2.3583984375	
1171144	12.53				
1171394	12.467				855	
1171644	12.41				
1171894	12.302				
1172144	12.182				
1172394	12.113				883	
1172644	12.022				
1172894	11.976				
1173144	11.833				836	
1173394	11.839	70			
1173644	11.776				
1173894	11.747				
1174144	11.707				867	
1174394	18.033				
1174644	48.649				
1174894	48.589				914	
1175144	45.268				
1175394	24.647				
1175644	12.245				
1175894	11.205			2.3583984375	809	
1176144	12.444				
1176394	12.33				
1176644	12.479				859	
1176894	12.559				
1177144	12.524				
1177394	12.473				
1177644	12.502				883	
1177894	13.073				
1178144	19.804				
1178394	33.249	69			848	
1178644	47.43				
1178894	48.661				
1179144	48.625				851	
1179394	48.661				
1179644	48.661				
1179894	40.083				
1180144	13.273				871	
1180394	14.484				
1180644	23.261				
1180894	48.745			2.3486328125	828	
1181144	48.745				
1181394	48.661				
1181644	48.709				825	
1181894	48.673				
1182144	48.697				
1182394	48.625				
1182644	48.661				859	
1182894	44.85				
1183144	16.63				
1183394	20.346	70			816	
1183644	22.544				
1183894	22.269				
1184144	31.17				825	
1184394	30.382				
1184644	46.236				
1184894	38.338				
1185144	21.744				859	
1185394	48.649				
1185644	40.465				
1185894	45.782			2.275390625	867	
1186144	27.168				
1186394	13.787				
1186644	9.907				746	
1186894	10.856				
1187144	13.821				
1187394	18.341				
1187644	48.697				848	
1187894	48.649				
1188144	48.613				
1188394	48.709	71			820	
1188644	48.745				
1188894	48.697				
1189144	48.649				750	
1189394	48.673				
1189644	48.709				
1189894	48.637				832	
1190144	47.86				
1190394	48.733				
1190644	27.861				770	
1190894	48.721			2.2265625	
1191144	41.54				
1191394	12.461				765	
1191644	9.965				
1191894	10.867				
1192144	10.873				
1192394	10.947				782	
1192644	15.301				
1192894	21.438				
1193144	14.265				816	
1193394	10.553	75			
1193644	11.062				
1193894	10.925				801	
1194144	10.839				
1194394	13.073				
1194644	11.085				765	
1194894	10.136				
1195144	10.096				
1195394	10.062				801	
1195644	17.827				
1195894	48.697			2.3583984375	
1196144	48.661				
1196394	48.649				828	
1196644	48.733				
1196894	48.649				
1197144	48.685				789	
1197394	48.637				
1197644	44.061				
1197894	30.585				805	
1198144	10.226				
1198394	9.176	75			
1198644	10.193				844	
1198894	10.37				
1199144	10.245				
1199394	10.125				
1199644	10.107				789	
1199894	10.096				
1200144	10.29				
1200394	10.319				809	
1200644	10.376				
1200894	10.553			2.265625	
1201144	10.633				843	
1201394	10.667				
1201644	10.719				
1201894	10.725				797	
1202144	10.713				
1202394	10.679				
1202644	10.656				
1202894	10.605				801	
1203144	10.553				
1203394	10.485	74			
1203644	10.41				844	
1203894	10.37				
1204144	10.33				
1204394	10.336				855	
1204644	10.313				
1204894	10.302				
1205144	10.273				762	
1205394	10.045				
1205644	9.896				
1205894	10.462			2.255859375	
1206144	10.759				851	
1206394	11.187				
1206644	11.376				
1206894	11.359				887	
1207144	10.262				
1207394	10.29				
1207644	10.005				774	
1207894	9.953				
1208144	11.336				
1208394	10.182	72			
1208644	10.096				836	
1208894	13.462				
1209144	23.278				
1209394	48.673				839	
1209644	48.685				
1209894	48.589				
1210144	48.601				774	
1210394	48.637				
1210644	48.613				
1210894	48.649			2.3583984375	812	
1211144	48.637				
1211394	48.553				
1211644	48.613				
1211894	48.721				871	
1212144	48.625				
1212394	48.745				
1212644	48.673				809	
1212894	48.733				
1213144	48.685				
1213394	48.052	73			809	
1213644	48.637				
1213894	48.601				
1214144	48.649				
1214394	48.685				859	
1214644	48.733				
1214894	48.649				
1215144	48.709				809	
1215394	48.637				
1215644	48.709				
1215894	48.661			2.24609375	757	
1216144	48.673				
1216394	48.661				
1216644	48.673				
1216894	48.661				864	
1217144	48.661				
1217394	44.049				
1217644	48.697				867	
1217894	48.649				
1218144	48.697				
1218394	48.649	72			769	
1218644	48.661				
1218894	48.673				
1219144	43.476				
1219394	11.887				864	
1219644	8.982				
1219894	9.805				
1220144	9.799				847	
1220394	9.799				
1220644	9.845				
1220894	9.805			2.255859375	774	
1221144	9.782				
1221394	9.753				
1221644	9.776				761	
1221894	9.753				
1222144	9.719				
1222394	9.702				801	
1222644	9.645				
1222894	9.673				
1223144	9.736				781	
1223394	9.947	74			
1223644	10.227				
1223894	10.445				747	
1224144	10.639				
1224394	10.679				
1224644	10.639				
1224894	10.525				812	
1225144	10.405				
1225394	10.307				
1225644	10.205				844	
1225894	10.153			2.2314453125	
1226144	10.227				
1226394	10.273				769	
1226644	10.285				
1226894	10.29				
1227144	10.273				
1227394	10.256				899	
1227644	10.267				
1227894	10.165				
1228144	12.542				867	
1228394	22.947	74			
1228644	48.649				
1228894	48.709				797	
1229144	48.673				
1229394	48.721				
1229644	48.721				
1229894	48.649				824	
1230144	48.637				
1230394	48.649				
1230644	48.709				867	
1230894	48.697			2.275390625	
1231144	48.601				
1231394	48.649				797	
1231644	48.673				
1231894	48.685				
1232144	48.709				
1232394	48.721				824	
1232644	48.685				
1232894	48.709				
1233144	48.661				868	
1233394	48.685	71			
1233644	48.637				
1233894	48.649				808	
1234144	48.661				
1234394	48.721				
1234644	48.685				
1234894	48.625				813	
1235144	48.649				
1235394	48.685				
1235644	48.697				879	
1235894	48.756			2.24609375	
1236144	48.589				
1236394	48.661				808	
1236644	48.673				
1236894	48.685				
1237144	48.673				774	
1237394	48.685				
1237644	48.697				
1237894	48.685				
1238144	48.601				882	
1238394	48.733	72			
1238644	48.637				
1238894	48.673				844	
1239144	48.721				
1239394	48.733				
1239644	48.697				
1239894	48.697				824	
1240144	48.745				
1240394	48.697				
1240644	48.685				879	
1240894	48.661			2.275390625	
1241144	48.673				
1241394	48.697				
1241644	48.709				883	
1241894	48.649				
1242144	48.709				
1242394	48.709				856	
1242644	48.625				
1242894	48.745				
1243144	48.613				
1243394	48.721	71			890	
1243644	48.756				
1243894	48.78				
1244144	48.685				883	
1244394	48.673				
1244644	48.685				
1244894	48.601				820	
1245144	48.637				
1245394	48.697				
1245644	48.589				
1245894	48.625			2.314453125	871	
1246144	48.697				
1246394	48.661				
1246644	48.625				879	
1246894	48.637				
1247144	48.697				
1247394	48.649				
1247644	48.685				801	
1247894	48.745				
1248144	48.649				
1248394	48.756	69			836	
1248644	48.625				
1248894	48.697				
1249144	48.673				867	
1249394	48.637				
1249644	48.661				
1249894	48.601				
1250144	48.745				836	
1250394	48.673				
1250644	48.709				
1250894	48.685			2.3583984375	871	
1251144	22.162				
1251394	9.462				
1251644	8.462				
1251894	9.222				844	
1252144	9.199				
1252394	9.17				
1252644	9.176				855	
1252894	9.176				
1253144	16.176				
1253394	18.255	70			813	
1253644	25.662				
1253894	48.613				
1254144	47.275				781	
1254394	48.661				
1254644	48.673				
1254894	38.004				719	
1255144	48.709				
1255394	48.506				
1255644	48.661				699	
1255894	48.637			2.3388671875	
1256144	48.673				
1256394	48.685				723	
1256644	48.637				
1256894	48.709				
1257144	48.685				777	
1257394	48.685				
1257644	24.539				
1257894	23.022				813	
1258144	31.875				
1258394	47.884	75			
1258644	47.717				
1258894	31.146				886	
1259144	34.79				
1259394	48.649				
1259644	48.756				868	
1259894	48.697				
1260144	48.709				
1260394	48.709				
1260644	48.733				918	
1260894	48.721			2.3583984375	
1261144	48.386				
1261394	48.709				
1261644	48.613				859	
1261894	48.697				
1262144	44.408				
1262394	41.97				949	
1262644	45.005				
1262894	32.186				
1263144	41.385				
1263394	48.314	73			809	
1263644	48.685				
1263894	48.255				
1264144	37.741				765	
1264394	48.577				
1264644	47.956				590	
1264894	48.111				
1265144	45.232				
1265394	47.442				848	
1265644	48.338				
1265894	35.579			2.24609375	348	
1266144	20.752				
1266394	32.221				
1266644	26.463				726	
1266894	35.794				
1267144	46.737				
1267394	48.685				738	
1267644	48.589				
1267894	48.685				
1268144	48.709				832	
1268394	48.733	80			
1268644	48.733				
1268894	48.075				727	
1269144	30.023				
1269394	18.542				
1269644	18.219				766	
1269894	29.27				
1270144	38.064				
1270394	21.612				699	
1270644	18.458				
1270894	17.813			2.3388671875	
1271144	17.455				703	
1271394	17.168				
1271644	16.893				
1271894	16.666				820	
1272144	16.463				
1272394	16.272				
1272644	16.152				903	
1272894	16.045				
1273144	15.913				
1273394	15.794	82			
1273644	15.686				847	
1273894	17.239				
1274144	16.045				
1274394	15.997				762	
1274644	16.069				
1274894	16.045				
1275144	16.009				754	
1275394	16.176				
1275644	16.582				
1275894	16.785			2.32421875	781	
1276144	16.821				
1276394	16.654				
1276644	16.331				809	
1276894	16.021				
1277144	15.591				
1277394	15.304				773	
1277644	15.005				
1277894	14.742				
1278144	14.599				649	
1278394	14.539	76			
1278644	14.515				
1278894	14.444				722	
1279144	14.288				
1279394	13.147				
1279644	14.65				715	
1279894	14.53				
1280144	14.456				688	
1280394	14.353				
1280644	14.279				
1280894	14.141			2.3486328125	652	
1281144	14.061				
1281394	14.05				582	
1281644	14.039				
1281894	14.027				
1282144	13.953				617	
1282394	13.901				
